<?xml version="1.0" encoding="utf-8"?>
<!-- Generator: Adobe Illustrator 16.0.0, SVG Export Plug-In . SVG Version: 6.00 Build 0)  -->
<!DOCTYPE svg PUBLIC "-//W3C//DTD SVG 1.1//EN" "http://www.w3.org/Graphics/SVG/1.1/DTD/svg11.dtd">
<svg version="1.1" id="Layer_1" xmlns:sketch="http://www.bohemiancoding.com/sketch/ns"
	 xmlns="http://www.w3.org/2000/svg" xmlns:xlink="http://www.w3.org/1999/xlink" x="0px" y="0px" width="40px" height="40px"
	 viewBox="0 0 40 40" enable-background="new 0 0 40 40" xml:space="preserve">
<g>
	<path d="M3.3,38L3.3,38h30h0.9c0.5,0,0.9-0.4,0.9-0.9v-4h2.2c0.5,0,0.9-0.4,0.9-0.9v-8.9h0.9c0.5,0,0.9-0.4,0.9-0.9v-9.8
		c0-0.5-0.4-0.9-0.9-0.9h-0.9V2.9c0-0.5-0.4-0.9-0.9-0.9h-32C2.4,2,0,4.4,0,7.3v27.3v0v0C0,36.5,1.5,38,3.3,38z M33.3,36.2h-30
		c-0.8,0-1.5-0.7-1.5-1.5v0c0-0.8,0.7-1.5,1.5-1.5h29.1h0.9V36.2z M38.2,21.6H28l-3.6-4l3.6-4h9.3c0,0,0,0,0,0c0,0,0,0,0,0h0.9V21.6
		z M5.3,3.8h31.1v8h-8.8c-0.3,0-0.5,0.1-0.7,0.3L22.6,17c-0.3,0.3-0.3,0.8,0,1.2L27,23c0.2,0.2,0.4,0.3,0.7,0.3h8.8v8h-2.2h-1.8H3.3
		c-0.6,0-1.1,0.1-1.5,0.4V7.3C1.8,5.4,3.4,3.8,5.3,3.8z"/>
	<path d="M29.8,14.9c-1.5,0-2.7,1.2-2.7,2.7c0,1.5,1.2,2.7,2.7,2.7c1.5,0,2.7-1.2,2.7-2.7C32.4,16.1,31.2,14.9,29.8,14.9z
		 M29.8,18.4c-0.5,0-0.9-0.4-0.9-0.9c0-0.5,0.4-0.9,0.9-0.9s0.9,0.4,0.9,0.9C30.7,18,30.3,18.4,29.8,18.4z"/>
</g>
</svg>
