<?xml version="1.0" encoding="utf-8"?>
<!-- Generator: Adobe Illustrator 16.0.0, SVG Export Plug-In . SVG Version: 6.00 Build 0)  -->
<!DOCTYPE svg PUBLIC "-//W3C//DTD SVG 1.1//EN" "http://www.w3.org/Graphics/SVG/1.1/DTD/svg11.dtd">
<svg version="1.1" id="Layer_1" xmlns:sketch="http://www.bohemiancoding.com/sketch/ns"
	 xmlns="http://www.w3.org/2000/svg" xmlns:xlink="http://www.w3.org/1999/xlink" x="0px" y="0px" width="40px" height="40px"
	 viewBox="0 0 40 40" enable-background="new 0 0 40 40" xml:space="preserve">
<g>
	<path d="M22.7,21.2l-8.7,7c-1,0.8-2.6,0.1-2.6-1.2v-7v-7c0-1.3,1.5-2.1,2.6-1.2l8.7,7C23.5,19.4,23.5,20.6,22.7,21.2z"/>
	<g>
		<path d="M1.5,25.1C2,25,2.3,24.5,2.2,24C2,23.5,2,22.9,1.9,22.4c-0.1-0.5-0.5-0.8-1-0.8c-0.5,0.1-0.8,0.5-0.8,1
			c0.1,0.6,0.2,1.2,0.3,1.8c0.1,0.4,0.5,0.7,0.9,0.7C1.4,25.1,1.4,25.1,1.5,25.1z"/>
		<path d="M40,20c0-2.7-0.6-5.4-1.6-7.8c0,0,0-0.1,0-0.1c-0.1-0.2-0.2-0.4-0.3-0.6c-0.1-0.3-0.3-0.6-0.4-0.8c0-0.1-0.1-0.1-0.1-0.2
			c0,0,0,0-0.1-0.1c-0.8-1.5-1.8-2.9-3-4.1c-3.1-3.2-7.1-5.3-11.4-6c0,0,0,0-0.1,0C22,0.1,21,0,20,0C14.7,0,9.8,2,6,5.6
			c-3.6,3.5-5.7,8.1-6,13.1c0,0.5,0.3,0.9,0.8,0.9c0,0,0,0,0.1,0c0.5,0,0.9-0.4,0.9-0.8C2.1,14.3,4,10.1,7.3,6.9
			c3.4-3.3,7.9-5.2,12.7-5.2c0.5,0,1,0,1.4,0.1c0,0,0,0,0,0c4.5,0.4,8.7,2.4,11.8,5.7c1.1,1.2,2.1,2.6,2.9,4
			c0.1,0.2,0.2,0.5,0.4,0.7c1.1,2.4,1.8,5,1.8,7.8c0,0.4,0,0.8-0.1,1.3c0,0.3-0.1,0.6-0.1,0.9c0,0.3-0.1,0.6-0.1,0.9
			c-0.7,4.4-3.1,8.4-6.6,11.2c-1.1,0.9-2.2,1.6-3.5,2.2c-2.5,1.2-5.3,1.8-8.1,1.8c-0.6,0-1.2,0-1.8-0.1c-0.2,0-0.5-0.1-0.7-0.1
			c-0.5-0.1-1-0.2-1.4-0.3c-0.3-0.1-0.6-0.1-0.9-0.2c-5.5-1.6-9.9-5.6-12-11C2.7,26,2.2,25.8,1.8,26c-0.5,0.2-0.7,0.7-0.5,1.1
			c2.3,5.9,7,10.3,13.1,12.1c0.2,0.1,0.4,0.1,0.5,0.1c0,0,0,0,0.1,0c0.1,0,0.1,0,0.2,0c0.7,0.2,1.4,0.3,2.2,0.4c0.1,0,0.2,0,0.2,0
			C18.4,40,19.2,40,20,40c0.1,0,0.1,0,0.2,0c0.6,0,1.3,0,1.9-0.1c0.1,0,0.3,0,0.4-0.1c0.6-0.1,1.3-0.2,1.9-0.3c0,0,0.1,0,0.1,0
			c1.4-0.3,2.8-0.8,4.2-1.5c0,0,0,0,0.1,0c0,0,0,0,0,0c1.3-0.6,2.5-1.4,3.7-2.3c3.9-3.1,6.4-7.4,7.3-12.3c0,0,0,0,0,0c0,0,0,0,0,0
			c0,0,0,0,0-0.1c0,0,0,0,0,0c0-0.1,0-0.2,0-0.2c0,0,0,0,0-0.1c0-0.2,0-0.4,0.1-0.6c0-0.3,0.1-0.6,0.1-0.9c0-0.1,0-0.2,0-0.3
			c0,0,0-0.1,0-0.1C40,20.6,40,20.3,40,20z"/>
	</g>
	<path d="M28.7,28.6h-4.3c-0.3,0-0.5-0.2-0.5-0.5V11.9c0-0.3,0.2-0.5,0.5-0.5h4.3c0.3,0,0.5,0.2,0.5,0.5v16.2
		C29.2,28.4,29,28.6,28.7,28.6z"/>
</g>
</svg>
