<?xml version="1.0" encoding="utf-8"?>
<!-- Generator: Adobe Illustrator 16.0.0, SVG Export Plug-In . SVG Version: 6.00 Build 0)  -->
<!DOCTYPE svg PUBLIC "-//W3C//DTD SVG 1.1//EN" "http://www.w3.org/Graphics/SVG/1.1/DTD/svg11.dtd">
<svg version="1.1" id="Layer_1" xmlns="http://www.w3.org/2000/svg" xmlns:xlink="http://www.w3.org/1999/xlink" x="0px" y="0px"
	 width="50px" height="50px" viewBox="0 0 50 50" enable-background="new 0 0 50 50" xml:space="preserve">
<g id="clock">
	<path fill="#F26649" d="M38.707,15.522h-0.035c-2.896-4.749-8.044-7.662-13.661-7.662c-8.81,0-15.977,7.182-15.977,16.014
		c0,8.81,7.167,15.978,15.977,15.978c8.831,0,16.015-7.17,16.015-15.978c0-2.64-0.636-5.24-1.848-7.521L38.707,15.522z
		 M25.014,36.711c-7.076,0-12.837-5.758-12.837-12.837C12.177,16.777,17.938,11,25.014,11c4.774,0,9.126,2.615,11.362,6.832
		l0.266,0.468c0.814,1.707,1.244,3.622,1.244,5.574C37.886,30.951,32.114,36.711,25.014,36.711z"/>
	<path fill="#F26649" d="M30.409,22.43h-3.818v-6.938c0-0.868-0.703-1.569-1.571-1.569c-0.863,0-1.566,0.701-1.566,1.569v8.507
		c0,0.865,0.702,1.569,1.566,1.569h5.39c0.866,0,1.569-0.706,1.569-1.569C31.98,23.131,31.275,22.43,30.409,22.43z"/>
	<path fill="#F26649" d="M50,10.466c0-4.95-4.025-8.976-8.97-8.976c-2.261,0-4.383,0.891-6.044,2.414
		c-6.081-3.071-13.745-3.1-19.975,0.018c-1.617-1.528-3.729-2.43-6.031-2.43C4.029,1.492,0,5.516,0,10.468
		c0,2.844,1.408,5.435,3.653,7.118c-0.608,2.021-0.986,4.114-0.986,6.288c0,4.802,1.539,9.243,4.13,12.892l-3.543,3.541
		c-0.925,0.928-1.432,2.139-1.432,3.401c0,1.311,0.517,2.53,1.434,3.398c0.905,0.905,2.103,1.403,3.387,1.403
		c1.285,0,2.483-0.501,3.382-1.398l3.894-3.868c3.275,1.883,7.057,2.974,11.098,2.974c3.843,0,7.448-0.975,10.61-2.679l3.586,3.584
		c0.941,0.917,2.172,1.376,3.402,1.376c1.231,0,2.456-0.465,3.385-1.395c0.905-0.901,1.398-2.109,1.398-3.399
		c0-1.242-0.484-2.438-1.398-3.405l-3.075-3.073c2.802-3.733,4.477-8.344,4.477-13.358c0-2.213-0.388-4.315-1.002-6.327
		C48.61,15.874,50,13.3,50,10.466z M7.802,44.894c-0.619,0.622-1.684,0.648-2.355-0.024c-0.33-0.309-0.488-0.698-0.488-1.158
		c0-0.435,0.176-0.846,0.511-1.184l3.326-3.322c0.766,0.81,1.593,1.565,2.468,2.25L7.802,44.894z M43.752,42.5
		c0.33,0.349,0.504,0.769,0.504,1.211c0,0.32-0.077,0.785-0.474,1.18c-0.65,0.648-1.715,0.634-2.365,0l-3.09-3.087
		c0.896-0.672,1.758-1.389,2.55-2.18L43.752,42.5z M43.85,15.555c-0.69,0.382-0.957,1.201-0.688,1.921l-0.026,0.008
		c0.746,1.979,1.119,4.125,1.119,6.387c0,10.596-8.631,19.208-19.241,19.208c-0.663,0-1.315-0.034-1.962-0.098
		c-9.672-0.987-17.247-9.182-17.247-19.11c0-2.217,0.369-4.363,1.101-6.37l-0.024-0.011c0.254-0.715-0.011-1.525-0.697-1.903
		c-1.882-1.03-3.048-2.994-3.048-5.122c0-3.216,2.623-5.837,5.842-5.837c1.774,0,3.405,0.786,4.472,2.155
		c0.483,0.625,1.342,0.755,2.008,0.37l0.014,0.024c5.811-3.35,13.39-3.312,19.019-0.034l0.014-0.024
		c0.654,0.382,1.489,0.269,1.987-0.327c1.14-1.373,2.791-2.16,4.533-2.16c3.216,0,5.835,2.616,5.835,5.833
		C46.862,12.588,45.708,14.54,43.85,15.555z"/>
</g>
</svg>
