<?xml version="1.0" encoding="utf-8"?>
<!-- Generator: Adobe Illustrator 16.0.0, SVG Export Plug-In . SVG Version: 6.00 Build 0)  -->
<!DOCTYPE svg PUBLIC "-//W3C//DTD SVG 1.1//EN" "http://www.w3.org/Graphics/SVG/1.1/DTD/svg11.dtd">
<svg version="1.1" id="Layer_1" xmlns="http://www.w3.org/2000/svg" xmlns:xlink="http://www.w3.org/1999/xlink" x="0px" y="0px"
	 width="100px" height="50px" viewBox="0 0 100 50" enable-background="new 0 0 100 50" xml:space="preserve">
<g>
	<g>
		<path fill="#FFFFFF" d="M88.6,19.6c-0.4-0.8-2.6-0.5-3.2-0.4c-0.2,0-19.1,3.7-24.3,4.8c-1.9,0.4-3.1,1.1-3.5,2.2
			c-0.5,1.3,0.4,2.5,0.4,2.5l2.9,4.9c0,0.1,0.1,0.1,0.2,0.1c0,0,0.1,0,0.1,0c0.1-0.1,0.2-0.2,0.1-0.4l-2.9-4.9c0,0-0.8-1-0.4-2
			c0.3-0.9,1.4-1.5,3.1-1.9c5.2-1.1,24.1-4.8,24.3-4.8c1.1-0.2,2.5-0.2,2.6,0.1c0,0,0.1,0.3-0.7,1c-0.4,0.2-4.6,2-22.7,4.9
			c-0.1,0-0.2,0.2-0.2,0.3c0,0.1,0.2,0.2,0.3,0.2c12.2-2,18-3.4,20.7-4.2c0.1,0.1,0.2,0.4,0.1,0.7c-0.3,0.9-2.7,3.4-19.6,5.5
			c-0.1,0-0.2,0.1-0.2,0.3c0,0.1,0.1,0.2,0.3,0.2c0,0,0,0,0,0c7.8-1,13.4-2.1,16.7-3.4c0,0.1,0,0.4-0.2,0.6
			c-0.3,0.5-0.9,1.1-2.4,1.7c0,0,0,0,0,0c0,0,0,0,0,0c-2.1,0.9-5.9,1.9-12.7,2.5c-0.1,0-0.2,0.1-0.2,0.3c0,0.1,0.1,0.2,0.3,0.2
			c0,0,0,0,0,0c6.4-0.6,10.2-1.5,12.5-2.4c0,0.2-0.1,0.4-0.3,0.7c-0.6,0.9-2.7,2.6-10.2,3.3c-0.2,0-6,0.1-6.1,3.1
			c0,0.1,0.1,0.3,0.3,0.3c0,0,0,0,0,0c0.1,0,0.3-0.1,0.3-0.3c0.1-2.5,5.5-2.6,5.6-2.6c7.3-0.6,9.8-2.3,10.6-3.5
			c0.3-0.5,0.4-1,0.3-1.3c1.4-0.7,2.2-1.3,2.5-1.9c0.3-0.4,0.3-0.8,0.2-1.1c1.7-0.7,2.6-1.5,2.8-2.2c0.1-0.4,0-0.7-0.1-1
			c1.1-0.4,1.5-0.6,1.6-0.6c0,0,0,0,0.1,0C88.2,20.8,88.9,20.1,88.6,19.6z"/>
		<g>
			<path fill="#FFFFFF" d="M63.8,35.3L63.8,35.3l-0.1-0.1l-0.1-0.1c0,0.1,0,0.3,0,0.4c0,6.8-5.5,12.4-12.4,12.4
				c-5.7,0-10.5-3.9-11.9-9.2l-0.1,0.2l0,0.1l0,0c1.5,5.3,6.4,9.1,12.1,9.1c7,0,12.6-5.6,12.6-12.6c0-0.1,0-0.2,0-0.4
				C63.9,35.2,63.9,35.3,63.8,35.3L63.8,35.3z"/>
			<path fill="#FFFFFF" d="M65.5,35.5c0,7.9-6.4,14.2-14.2,14.2c-7,0-12.9-5.1-14-11.8c-0.1,0-0.2,0-0.3,0
				C38.1,44.8,44.1,50,51.3,50c8,0,14.5-6.5,14.5-14.5c0-0.7-0.1-1.5-0.2-2.2c-0.1,0-0.2,0.1-0.2,0.1C65.4,34.1,65.5,34.8,65.5,35.5
				z"/>
			<path fill="#FFFFFF" d="M51.3,48.4c7.1,0,12.9-5.8,12.9-12.9c0-0.3,0-0.7,0-1c-0.1,0.2-0.2,0.4-0.2,0.7c0,0.1,0,0.2,0,0.4
				c0,7-5.6,12.6-12.6,12.6c-5.8,0-10.6-3.8-12.1-9.1l0,0.1l0,0c-0.1-0.2-0.2-0.4-0.4-0.5C40.1,44.2,45.2,48.4,51.3,48.4z"/>
			<path fill="#FFFFFF" d="M65.2,35.5c0,7.7-6.3,14-14,14c-6.9,0-12.6-5-13.7-11.5c-0.1,0-0.2,0-0.3,0c1.2,6.7,7,11.8,14,11.8
				c7.9,0,14.2-6.4,14.2-14.2c0-0.7-0.1-1.4-0.2-2.1c-0.1,0-0.2,0.1-0.2,0.1C65.2,34.2,65.2,34.9,65.2,35.5z"/>
		</g>
		<path fill="#FFFFFF" d="M10.1,34.4c0.1-0.9,2.2-1.5,2.8-1.6c0.2,0,19-4.2,24.2-5.2c1.9-0.4,3.3-0.2,4.1,0.6c0.9,1,0.6,2.4,0.6,2.5
			l-0.7,5.6c0,0.1-0.1,0.2-0.2,0.2c0,0-0.1,0-0.1,0c-0.1,0-0.2-0.1-0.2-0.3l0.7-5.6c0,0,0.3-1.2-0.5-2c-0.6-0.7-1.8-0.8-3.6-0.5
			c-5.2,1-24,5.2-24.2,5.2c-1.1,0.3-2.4,0.8-2.4,1.1c0,0,0,0.3,1.1,0.7c0.4,0,5,0,22.7-4.5c0.1,0,0.3,0,0.3,0.2
			c0,0.1-0.1,0.3-0.2,0.3c-11.9,3-17.9,4-20.7,4.4c0,0.2-0.1,0.4,0.1,0.7c0.6,0.8,3.8,2,20.1-2.7c0.1,0,0.3,0,0.3,0.2
			c0,0.1,0,0.3-0.1,0.3c0,0,0,0,0,0c-7.5,2.2-13.1,3.4-16.7,3.5c0.1,0.1,0.2,0.3,0.4,0.5c0.4,0.3,1.3,0.6,2.9,0.7c0,0,0,0,0,0
			c0,0,0,0,0,0c2.3,0,6.2-0.6,12.6-2.7c0.1,0,0.3,0,0.3,0.2c0,0.1,0,0.3-0.1,0.3c0,0,0,0,0,0c-6.1,2-10,2.7-12.4,2.7
			c0.1,0.2,0.2,0.4,0.5,0.6c0.9,0.6,3.5,1.3,10.7-1.1c0.2-0.1,5.5-2.3,6.8,0.4c0.1,0.1,0,0.3-0.1,0.3c0,0,0,0,0,0
			c-0.1,0.1-0.3,0-0.3-0.1c-1-2.2-6.1-0.2-6.1-0.1c-7,2.3-9.9,1.8-11.1,1c-0.5-0.4-0.7-0.8-0.8-1c-1.6,0-2.5-0.4-3-0.8
			c-0.4-0.3-0.6-0.6-0.6-0.9c-1.8,0-3-0.3-3.5-0.9c-0.3-0.3-0.3-0.7-0.3-0.9c-1.2,0.1-1.6,0.1-1.7,0.1c0,0,0,0-0.1,0
			C11,35.4,10.1,35.1,10.1,34.4z"/>
		<path fill="#FFFFFF" d="M46.8,44.3V27.4l-0.6,0.1v17.3l4.4-0.9c0.6-0.1,1.2-0.4,1.8-0.7c-0.2,0.1-0.4,0.1-0.5,0.1L46.8,44.3z"/>
		<path fill="#FFFFFF" d="M52.6,28.8c-0.1-0.1-0.3-0.1-0.4-0.1c-0.1,0-0.1,0-0.2,0l-1.2,0.2v0.3c0.4-0.1,0.8,0,1.1,0.2
			c0.3,0.2,0.5,0.6,0.5,1v8.9c0.1-0.1,0.2-0.1,0.3-0.2c0.2-0.3,0.3-0.5,0.3-0.8v-9C52.8,29,52.8,28.9,52.6,28.8z"/>
		<path fill="#FFFFFF" d="M56.1,37.7c0,1.1-0.4,2.2-1.3,3.2c-0.9,1-1.9,1.6-3.1,1.8l-4.4,0.9V26.3l4.4-0.9c1.2-0.2,2.2,0,3.1,0.6
			c0.8,0.6,1.3,1.5,1.3,2.7V37.7L56.1,37.7z M50.1,40.5l1.7-0.3c0.4-0.1,0.8-0.3,1.1-0.7c0.3-0.4,0.5-0.7,0.5-1.1v-9
			c0-0.4-0.2-0.7-0.5-1c-0.3-0.2-0.7-0.3-1.1-0.2l-1.7,0.3V40.5z"/>
	</g>
	<path fill="#FFFFFF" d="M41.1,28.5c2.2-3.2,6-5.3,10.2-5.3c2.7,0,5.2,0.9,7.2,2.3c0.1-0.1,0.1-0.1,0.2-0.2
		c-2.1-1.5-4.6-2.4-7.4-2.4c-4.3,0-8.1,2.1-10.4,5.4C40.9,28.3,41,28.4,41.1,28.5C41.1,28.4,41.1,28.5,41.1,28.5z"/>
	<path fill="#FFFFFF" d="M51.3,21.3c3.4,0,6.6,1.2,9,3.2c0.1,0,0.2-0.1,0.3-0.1C58,22.3,54.8,21,51.3,21c-5.1,0-9.6,2.7-12.2,6.7
		c0.1,0,0.2,0,0.3,0C41.9,23.8,46.3,21.3,51.3,21.3z"/>
	<path fill="#FFFFFF" d="M51.3,22.9c2.8,0,5.3,0.9,7.4,2.4c0.1-0.1,0.1-0.1,0.2-0.2c-2.1-1.6-4.8-2.5-7.6-2.5
		c-4.4,0-8.2,2.2-10.6,5.5c0.1,0,0.1,0.1,0.2,0.2C43.2,25,47,22.9,51.3,22.9z"/>
	<path fill="#FFFFFF" d="M39.4,27.7c0.1,0,0.2,0,0.3,0c2.5-3.7,6.8-6.2,11.6-6.2c3.3,0,6.3,1.1,8.7,3.1c0.1,0,0.2-0.1,0.3-0.1
		c-2.5-2-5.6-3.2-9-3.2C46.3,21.3,41.9,23.8,39.4,27.7z"/>
	<g>
		<path fill="#FFFFFF" d="M12.5,31V15.7L12,15.8v15.7l4-0.8c0.6-0.1,1.1-0.3,1.6-0.7c-0.2,0-0.3,0.1-0.5,0.1L12.5,31z"/>
		<path fill="#FFFFFF" d="M17.7,17c-0.1-0.1-0.2-0.1-0.4-0.1c-0.1,0-0.1,0-0.2,0L16,17.1v0.3c0.4-0.1,0.7,0,1,0.2
			c0.3,0.2,0.4,0.5,0.4,0.9v8.1c0.1-0.1,0.2-0.1,0.2-0.2c0.2-0.2,0.3-0.5,0.3-0.7v-8.2C17.9,17.2,17.9,17.1,17.7,17z"/>
		<path fill="#FFFFFF" d="M27.7,14.7c-0.1-0.1-0.2-0.1-0.4-0.1c-0.1,0-0.1,0-0.2,0c-0.3,0.1-0.5,0.2-0.7,0.4c0,0,0,0-0.1,0.1
			c0.2,0,0.5,0.1,0.7,0.2c0.3,0.2,0.4,0.5,0.4,0.9v8.4c0.1-0.1,0.2-0.1,0.2-0.2c0.2-0.2,0.3-0.4,0.3-0.7v-8.6
			C27.9,14.9,27.8,14.8,27.7,14.7z"/>
		<path fill="#FFFFFF" d="M26.2,28.4c-0.8,0-1.6-0.2-2.2-0.7C23,27,22.5,26,22.5,24.8v-8.5c0-0.4,0.1-0.8,0.2-1.2
			c-0.5,0.7-0.7,1.5-0.7,2.3v8.5c0,1,0.4,1.8,1.2,2.4c0.8,0.6,1.7,0.8,2.8,0.5c0.6-0.1,1.1-0.3,1.7-0.7c-0.2,0-0.3,0.1-0.5,0.1
			C26.8,28.4,26.5,28.4,26.2,28.4z"/>
		<path fill="#FFFFFF" d="M37.5,14.2v8.4c0.1-0.1,0.2-0.1,0.2-0.2c0.2-0.2,0.3-0.4,0.3-0.7v-8.6c0-0.3-0.1-0.4-0.2-0.5
			c-0.1-0.1-0.2-0.1-0.4-0.1c-0.1,0-0.1,0-0.2,0c-0.3,0.1-0.5,0.2-0.7,0.4c0,0,0,0-0.1,0.1c0.2,0,0.5,0.1,0.7,0.2
			C37.4,13.5,37.5,13.8,37.5,14.2z"/>
		<path fill="#FFFFFF" d="M36.3,26.4c-0.8,0-1.6-0.2-2.2-0.7c-0.9-0.7-1.4-1.6-1.4-2.8v-8.5c0-0.4,0.1-0.8,0.2-1.2
			c-0.5,0.7-0.7,1.5-0.7,2.3v8.5c0,1,0.4,1.8,1.2,2.4c0.8,0.6,1.7,0.8,2.8,0.5c0.6-0.1,1.1-0.3,1.7-0.7c-0.2,0-0.3,0.1-0.5,0.1
			C36.9,26.3,36.6,26.4,36.3,26.4z"/>
		<polygon fill="#FFFFFF" points="65.3,7.2 62.7,7.7 62.7,5.6 62.1,5.7 62.1,8.1 64.8,7.6 64.8,20.8 67.3,20.3 67.3,20 65.3,20.4 		
			"/>
		<polygon fill="#FFFFFF" points="68.9,6.7 70,6.5 70,6.2 68.9,6.4 		"/>
		<polygon fill="#FFFFFF" points="72.5,3.6 72,3.7 72,19.4 79.2,17.9 79.2,17.6 72.5,19 		"/>
		<polygon fill="#FFFFFF" points="79.2,4.7 79.2,4.4 76.1,5 76.1,5.3 		"/>
		<polygon fill="#FFFFFF" points="77.9,11.6 77.9,11.2 76.1,11.6 76.1,11.9 		"/>
		<path fill="#FFFFFF" d="M85,10.6v0.3c0.5-0.1,1.1-0.3,1.5-0.6c-0.2,0-0.3,0.1-0.5,0.1L85,10.6z"/>
		<path fill="#FFFFFF" d="M86.7,3.1C86.6,3,86.5,3,86.4,3c-0.1,0-0.2,0-0.3,0L85,3.2v0.3c0.4-0.1,0.7,0,1,0.2
			c0.3,0.2,0.4,0.5,0.4,0.9v2.2c0.1-0.1,0.2-0.1,0.2-0.2c0.2-0.2,0.3-0.5,0.3-0.7V3.6C86.9,3.2,86.8,3.1,86.7,3.1z"/>
		<polygon fill="#FFFFFF" points="81.4,1.8 80.9,2 80.9,17.6 83.4,17.1 83.4,16.8 81.4,17.2 		"/>
		<path fill="#FFFFFF" d="M19.7,14.5C19,13.9,18,13.7,16.9,14l-4,0.8v15.7l4-0.8c1.1-0.2,2-0.8,2.8-1.7c0.8-0.9,1.2-1.8,1.2-2.9
			v-8.2C20.9,15.9,20.5,15.1,19.7,14.5z M18.5,25.6c0,0.4-0.1,0.7-0.4,1c-0.3,0.3-0.6,0.5-1,0.6l-1.5,0.3V16.7l1.5-0.3
			c0.4-0.1,0.7,0,1,0.2c0.3,0.2,0.4,0.5,0.4,0.9L18.5,25.6L18.5,25.6z"/>
		<path fill="#FFFFFF" d="M29.9,12.3c-0.8-0.6-1.7-0.8-2.8-0.5c-1.1,0.2-2,0.8-2.8,1.7c-0.8,0.9-1.2,1.8-1.2,2.9v8.5
			c0,1,0.4,1.8,1.2,2.4c0.8,0.6,1.7,0.8,2.8,0.5c1.1-0.2,2-0.8,2.8-1.7c0.8-0.9,1.2-1.8,1.2-2.9v-8.5C31,13.7,30.6,12.9,29.9,12.3z
			 M28.4,23.7c0,0.4-0.1,0.7-0.4,1c-0.3,0.3-0.6,0.5-1,0.6c-0.4,0.1-0.7,0-1-0.2c-0.3-0.2-0.4-0.5-0.4-0.9v-8.6c0-0.4,0.1-0.7,0.4-1
			c0.3-0.3,0.6-0.5,1-0.6c0.4-0.1,0.7,0,1,0.2c0.3,0.2,0.4,0.5,0.4,0.9V23.7z"/>
		<path fill="#FFFFFF" d="M34.4,25.2c0.8,0.6,1.7,0.8,2.8,0.5c1.1-0.2,2-0.8,2.8-1.7c0.8-0.9,1.2-1.8,1.2-2.9v-8.5
			c0-1-0.4-1.8-1.2-2.4c-0.8-0.6-1.7-0.8-2.8-0.5c-1.1,0.2-2,0.8-2.8,1.7c-0.8,0.9-1.2,1.8-1.2,2.9v8.5
			C33.2,23.8,33.6,24.6,34.4,25.2z M35.7,13.7c0-0.4,0.1-0.7,0.4-1c0.3-0.3,0.6-0.5,1-0.6c0.4-0.1,0.7,0,1,0.2
			c0.3,0.2,0.4,0.5,0.4,0.9v8.6c0,0.4-0.1,0.7-0.4,1c-0.3,0.3-0.6,0.5-1,0.6c-0.4,0.1-0.7,0-1-0.2c-0.3-0.2-0.4-0.5-0.4-0.9V13.7z"
			/>
		<polygon fill="#FFFFFF" points="63.2,7.1 65.9,6.5 65.9,19.8 68.4,19.3 68.4,6 71,5.5 71,3.1 63.2,4.7 		"/>
		<polygon fill="#FFFFFF" points="73.1,18.3 80.2,16.9 80.2,14.5 75.6,15.5 75.6,11.2 79,10.5 79,8.1 75.6,8.8 75.6,4.5 80.2,3.6 
			80.2,1.2 73.1,2.7 		"/>
		<path fill="#FFFFFF" d="M88.8,0.6c-0.7-0.6-1.7-0.7-2.9-0.5l-4,0.8v15.6l2.5-0.5v-5.9l1.5-0.3c1.1-0.2,2-0.8,2.8-1.7
			c0.8-0.9,1.2-1.8,1.2-2.9V3.1C89.9,2,89.5,1.2,88.8,0.6z M87.4,5.9c0,0.4-0.1,0.7-0.4,1c-0.3,0.3-0.6,0.5-1,0.6l-1.5,0.3v-5
			L86,2.5c0.4-0.1,0.8,0,1,0.2c0.3,0.2,0.4,0.5,0.4,0.9V5.9z"/>
	</g>
	<g>
		<path fill="#FFFFFF" d="M47.8,12.4v2.2c0.1-0.1,0.2-0.1,0.2-0.2c0.2-0.2,0.3-0.5,0.3-0.7v-2.3c0-0.6-0.2-0.6-0.5-0.6
			c-0.1,0-0.2,0-0.4,0L46.4,11v0.3C47.4,11.1,47.8,11.5,47.8,12.4z"/>
		<path fill="#FFFFFF" d="M47.2,18.2l-0.8,0.2v0.3c0,0,0.1,0,0.1,0l0.8,3c0.2-0.1,0.5-0.1,0.7-0.2L47.2,18.2z"/>
		<path fill="#FFFFFF" d="M42.9,9.6l-0.5,0.1v14.4c0.2-0.1,0.3-0.3,0.5-0.4L42.9,9.6L42.9,9.6z"/>
		<path fill="#FFFFFF" d="M54.7,15.2c1,0.7,1.7,1.2,2.2,1.5c0.6,0.5,0.9,1.1,0.9,1.7c0,0.1,0,0.1,0,0.2c0.1-0.1,0.2-0.3,0.4-0.4
			c0.1-0.2,0.2-0.5,0.2-0.8c0-0.5-0.2-0.9-0.8-1.3l-2.2-1.5c-0.9-0.6-1.5-1.2-1.9-1.8c-0.4-0.7-0.6-1.5-0.6-2.4
			c0-0.6,0.1-1.1,0.2-1.6c-0.5,0.8-0.7,1.6-0.7,2.6c0,0.8,0.2,1.5,0.6,2.1C53.3,14,53.9,14.6,54.7,15.2z"/>
		<path fill="#FFFFFF" d="M53.2,20.5C53,20,52.8,19.5,52.7,19l-0.6,0.2c0,0.8,0.2,1.4,0.5,2c0.4,0,0.8,0.1,1.2,0.2
			C53.6,21,53.4,20.8,53.2,20.5z"/>
		<path fill="#FFFFFF" d="M57.8,22.3c0.2-0.1,0.3-0.2,0.5-0.3c-0.2,0.1-0.5,0.1-0.7,0.2c-0.2,0-0.3,0.1-0.5,0.1
			c0.1,0.1,0.2,0.1,0.3,0.2C57.5,22.4,57.7,22.3,57.8,22.3z"/>
		<path fill="#FFFFFF" d="M58.4,9.4c-0.1-0.5-0.2-0.9-0.4-1.1c0,0-0.1-0.1-0.3-0.1c-0.1,0-0.2,0-0.3,0c-0.3,0.1-0.5,0.2-0.7,0.5
			c0.2,0,0.4,0.1,0.5,0.2c0.3,0.3,0.5,0.8,0.6,1.4l2.4-0.9c0,0,0-0.1,0-0.1l-1.8,0.7L58.4,9.4z"/>
		<path fill="#FFFFFF" d="M45.9,17.9l1.5-0.3c0.1,0,0.2,0,0.2,0l1,3.7c0.9-0.2,1.7-0.2,2.7-0.2c0,0,0.1,0,0.1,0L50,16.1
			c0.9-0.9,1.3-2,1.3-3.1v-2.3c0-1.1-0.3-2-0.9-2.5c-0.7-0.6-1.7-0.7-3.1-0.5l-4,0.8v14.7c0.8-0.5,1.6-0.9,2.5-1.3V17.9z M45.9,10.6
			l1.5-0.3c1-0.2,1.4,0.2,1.4,1.1v2.3c0,0.4-0.1,0.7-0.4,1c-0.3,0.3-0.6,0.5-1,0.6l-1.5,0.3V10.6z"/>
		<path fill="#FFFFFF" d="M57.4,21.7c0.5-0.1,1-0.3,1.4-0.5c0.7-0.4,1.3-0.9,1.7-1.5c0.6-0.9,0.9-1.9,0.9-3c0-0.4-0.1-0.9-0.4-1.4
			c-0.1-0.2-0.2-0.4-0.4-0.7c-0.3-0.5-0.8-1-1.4-1.4c-0.2-0.1-0.6-0.4-1.2-0.7c-0.5-0.3-0.9-0.5-1.1-0.8c-0.7-0.6-1-1.3-1-2
			c0-0.5,0.1-0.9,0.3-1.2c0.2-0.4,0.6-0.7,1.1-0.8c0.4-0.1,0.8,0,1,0.2c0.3,0.3,0.5,0.8,0.6,1.4l2.4-0.9c-0.1-0.7-0.2-1.2-0.6-1.7
			c-0.3-0.5-0.7-0.8-1.2-1c-0.6-0.2-1.4-0.3-2.3-0.1c-0.9,0.2-1.7,0.6-2.3,1.1c-1,0.9-1.5,2.1-1.5,3.5c0,0.8,0.2,1.5,0.6,2.1
			c0.3,0.5,0.9,1.1,1.8,1.7c1,0.7,1.7,1.2,2.2,1.5c0.6,0.5,0.9,1.1,0.9,1.7c0,0.5-0.1,0.8-0.3,1.1c-0.3,0.6-0.8,0.9-1.3,1
			c-0.4,0.1-0.7,0-1-0.2c-0.4-0.3-0.7-0.9-0.8-1.8l-2.4,0.6c0.1,0.8,0.2,1.5,0.6,2.1c0.3,0.6,0.7,1,1.3,1.3c0.2,0.1,0.3,0.1,0.5,0.2
			c0,0,0,0,0,0C56,21.8,56.7,21.8,57.4,21.7z"/>
	</g>
</g>
</svg>
