<?xml version="1.0" encoding="utf-8"?>
<!-- Generator: Adobe Illustrator 16.0.0, SVG Export Plug-In . SVG Version: 6.00 Build 0)  -->
<!DOCTYPE svg PUBLIC "-//W3C//DTD SVG 1.1//EN" "http://www.w3.org/Graphics/SVG/1.1/DTD/svg11.dtd">
<svg version="1.1" id="Layer_1" xmlns="http://www.w3.org/2000/svg" xmlns:xlink="http://www.w3.org/1999/xlink" x="0px" y="0px"
	 width="188px" height="50px" viewBox="0 0 188 50" enable-background="new 0 0 188 50" xml:space="preserve">
<g>
	<g>
		<path fill="#FFFFFF" d="M48.1,12.3h10.5c2.6,0,4.6,0.7,5.9,2c1,1.1,1.5,2.3,1.5,3.9v0.1c0,2.6-1.4,4.1-3,5c2.6,1,4.2,2.6,4.2,5.7
			v0.1c0,4.2-3.3,6.3-8.4,6.3H48.1L48.1,12.3L48.1,12.3z M57.5,21.7c2.2,0,3.6-0.7,3.6-2.4v-0.1c0-1.5-1.2-2.4-3.3-2.4h-4.4v4.9
			L57.5,21.7L57.5,21.7z M58.8,31c2.2,0,3.5-0.8,3.5-2.5v-0.1c0-1.5-1.1-2.5-3.7-2.5h-5.2V31H58.8L58.8,31z"/>
		<path fill="#FFFFFF" d="M68,27.2L68,27.2c0-4.8,3.7-8.7,8.7-8.7c5,0,8.7,3.8,8.7,8.6v0.1c0,4.8-3.7,8.6-8.7,8.6
			C71.7,35.8,68,32,68,27.2z M80.9,27.2L80.9,27.2c0-2.5-1.7-4.6-4.2-4.6c-2.6,0-4.2,2.1-4.2,4.5v0.1c0,2.4,1.7,4.6,4.2,4.6
			C79.4,31.7,80.9,29.7,80.9,27.2z"/>
		<path fill="#FFFFFF" d="M107.7,27.2L107.7,27.2c0-4.8,3.7-8.7,8.7-8.7c5,0,8.7,3.8,8.7,8.6v0.1c0,4.8-3.7,8.6-8.7,8.6
			C111.4,35.8,107.7,32,107.7,27.2z M120.6,27.2L120.6,27.2c0-2.5-1.7-4.6-4.2-4.6c-2.6,0-4.2,2.1-4.2,4.5v0.1
			c0,2.4,1.7,4.6,4.2,4.6C119.1,31.7,120.6,29.7,120.6,27.2z"/>
		<path fill="#FFFFFF" d="M86.5,18.8h3.6l1.1,3.3c1-2.3,2.5-3.8,5.3-3.6v4.9h-0.2c-3.1,0-5,1.9-5,5.8v6.1h-4.7V18.8z"/>
		<path fill="#FFFFFF" d="M97.8,18.8h3.6l1.1,3.3c1-2.3,2.5-3.8,5.3-3.6v4.9h-0.2c-3.1,0-5,1.9-5,5.8v6.1h-4.7V18.8z"/>
		<path fill="#FFFFFF" d="M124.4,18.8h5l2.8,10l3.3-10.1h4.3l3.3,10.1l2.9-10.1h4.9l-5.4,16.7h-4.5l-3.3-10.2l-3.4,10.2h-4.4
			L124.4,18.8z"/>
		<path fill="#FFFFFF" d="M150,27.2L150,27.2c0-4.8,3.4-8.7,8.2-8.7c5.5,0,8.1,4.3,8.1,9c0,0.4,0,0.8-0.1,1.2h-11.5
			c0.5,2.1,1.9,3.2,4,3.2c1.6,0,2.7-0.5,4-1.7l2.7,2.4c-1.5,1.9-3.8,3.1-6.8,3.1C153.7,35.8,150,32.3,150,27.2z M161.7,25.8
			c-0.3-2.1-1.5-3.5-3.5-3.5c-1.9,0-3.2,1.4-3.6,3.5H161.7z"/>
		<path fill="#FFFFFF" d="M167.4,11.8h4.7v23.6h-4.7V11.8z"/>
		<path fill="#FFFFFF" d="M173.8,11.8h4.7v23.6h-4.7V11.8z"/>
	</g>
	<path fill="#FFFFFF" d="M23.2,34.4c-8.1,0-14.7-6.6-14.7-14.7V5h14.7c8.1,0,14.7,6.6,14.7,14.7C37.9,27.8,31.3,34.4,23.2,34.4z
		 M10.6,7.1v12.6c0,7,5.7,12.6,12.6,12.6s12.6-5.7,12.6-12.6c0-7-5.7-12.6-12.6-12.6H10.6z"/>
	<path fill="#FFFFFF" d="M23.2,45H8.5V30.3c0-8.1,6.6-14.7,14.7-14.7c8.1,0,14.7,6.6,14.7,14.7C37.9,38.4,31.3,45,23.2,45z
		 M10.6,42.9h12.6c7,0,12.6-5.7,12.6-12.6c0-7-5.7-12.6-12.6-12.6s-12.6,5.7-12.6,12.6V42.9z"/>
</g>
</svg>
