<?xml version="1.0" encoding="utf-8"?>
<!-- Generator: Adobe Illustrator 16.0.0, SVG Export Plug-In . SVG Version: 6.00 Build 0)  -->
<!DOCTYPE svg PUBLIC "-//W3C//DTD SVG 1.1//EN" "http://www.w3.org/Graphics/SVG/1.1/DTD/svg11.dtd">
<svg version="1.1" id="Layer_1" xmlns="http://www.w3.org/2000/svg" xmlns:xlink="http://www.w3.org/1999/xlink" x="0px" y="0px"
	 width="200px" height="50px" viewBox="0 0 200 50" enable-background="new 0 0 200 50" xml:space="preserve">
<g>
	<g>
		<path fill="#FFFFFF" d="M54.5,26.2c0-4.6,3.4-7.6,7.7-7.6c2.9,0,4.7,1.4,5.9,3L66,22.8c-0.8-1.1-2.2-2-3.8-2
			c-2.9,0-5.1,2.2-5.1,5.3c0,3.1,2.2,5.3,5.1,5.3c1.5,0,2.8-0.7,3.5-1.3v-2.3h-4.4v-2.3h7v5.5c-1.4,1.6-3.5,2.7-6.1,2.7
			C57.9,33.8,54.5,30.8,54.5,26.2z"/>
		<path fill="#FFFFFF" d="M70.9,33.5V22.9h2.3v1.5c0.8-1,2.1-1.8,3.5-1.8v2.3c-0.2,0-0.4-0.1-0.7-0.1c-1,0-2.3,0.7-2.8,1.4v7.3
			L70.9,33.5L70.9,33.5z"/>
		<path fill="#FFFFFF" d="M77.9,28.2c0-3.1,2.1-5.6,5.5-5.6c3.4,0,5.5,2.5,5.5,5.6c0,3-2.1,5.6-5.5,5.6C80,33.8,77.9,31.2,77.9,28.2
			z M86.4,28.2c0-1.9-1.1-3.5-3.1-3.5c-2,0-3.1,1.7-3.1,3.5c0,1.9,1.1,3.6,3.1,3.6C85.4,31.7,86.4,30.1,86.4,28.2z"/>
		<path fill="#FFFFFF" d="M100.5,33.5L98,25.7l-2.5,7.8h-2.4l-3.3-10.7h2.4l2.3,7.8l2.5-7.8h2.1l2.5,7.8l2.3-7.8h2.4L103,33.5H100.5
			z"/>
		<path fill="#FFFFFF" d="M108.4,31v-6.2h-1.8v-2h1.8v-2.9h2.3v2.9h2.2v2h-2.2v5.6c0,0.7,0.4,1.3,1,1.3c0.4,0,0.8-0.2,1-0.4l0.6,1.8
			c-0.4,0.4-1.1,0.7-2.2,0.7C109.3,33.8,108.4,32.8,108.4,31z"/>
		<path fill="#FFFFFF" d="M122.1,33.5v-6.7c0-1.7-0.8-2.2-2.1-2.2c-1.2,0-2.2,0.7-2.7,1.4v7.5h-2.3V18.8h2.3v5.5
			c0.7-0.8,2.1-1.7,3.8-1.7c2.3,0,3.4,1.2,3.4,3.4v7.6H122.1L122.1,33.5z"/>
		<path fill="#FFFFFF" d="M132.6,26.2c0-4.6,3.4-7.6,7.7-7.6c2.9,0,4.8,1.4,5.9,3l-2.1,1.2c-0.8-1.1-2.2-2-3.8-2
			c-2.9,0-5.1,2.2-5.1,5.3c0,3.1,2.2,5.3,5.1,5.3c1.5,0,2.8-0.7,3.5-1.3v-2.3h-4.4v-2.3h7v5.5c-1.4,1.6-3.5,2.7-6.1,2.7
			C136,33.8,132.6,30.8,132.6,26.2z"/>
		<path fill="#FFFFFF" d="M148.3,28.2c0-3.1,2.3-5.6,5.4-5.6c3.2,0,5.2,2.4,5.2,5.8V29h-8.2c0.2,1.6,1.4,2.9,3.4,2.9
			c1.1,0,2.3-0.4,3-1.2l1.1,1.5c-1.1,1-2.6,1.6-4.3,1.6C150.7,33.8,148.3,31.6,148.3,28.2z M153.7,24.5c-2,0-2.9,1.5-3,2.8h6
			C156.7,26,155.8,24.5,153.7,24.5z"/>
		<path fill="#FFFFFF" d="M160.6,28.2c0-3.1,2.2-5.6,5.4-5.6c3.2,0,5.2,2.4,5.2,5.8V29h-8.2c0.2,1.6,1.4,2.9,3.4,2.9
			c1.1,0,2.3-0.4,3-1.2l1.1,1.5c-1.1,1-2.7,1.6-4.3,1.6C163,33.8,160.6,31.6,160.6,28.2z M166,24.5c-2,0-2.9,1.5-3,2.8h6
			C169,26,168.1,24.5,166,24.5z"/>
		<path fill="#FFFFFF" d="M180.6,33.5l-3.2-4.4l-1.5,1.5v2.9h-2.3V18.8h2.3V28l4.7-5.1h2.9l-4.4,4.8l4.5,5.8H180.6L180.6,33.5z"/>
		<path fill="#FFFFFF" d="M184.3,32.1l1.1-1.7c0.8,0.8,2.2,1.5,3.6,1.5c1.4,0,2.1-0.6,2.1-1.4c0-2.1-6.4-0.6-6.4-4.7
			c0-1.7,1.5-3.2,4.2-3.2c1.8,0,3.2,0.6,4.1,1.5l-1,1.6c-0.6-0.7-1.8-1.3-3.2-1.3c-1.2,0-2,0.6-2,1.3c0,1.9,6.4,0.5,6.4,4.7
			c0,1.9-1.6,3.3-4.4,3.3C187,33.8,185.4,33.2,184.3,32.1z"/>
	</g>
	<path fill="#FFFFFF" d="M6.7,7.8v34.4h34.4V7.8H6.7z M14.2,14.9H21v6.8h-6.8V14.9z M33.6,35.1H14.2v-6.8h19.4V35.1z M33.6,21.6
		h-6.8v-6.8h6.8V21.6z"/>
</g>
</svg>
