<?xml version="1.0" encoding="utf-8"?>
<!-- Generator: Adobe Illustrator 16.0.0, SVG Export Plug-In . SVG Version: 6.00 Build 0)  -->
<!DOCTYPE svg PUBLIC "-//W3C//DTD SVG 1.1//EN" "http://www.w3.org/Graphics/SVG/1.1/DTD/svg11.dtd">
<svg version="1.1" id="Layer_1" xmlns="http://www.w3.org/2000/svg" xmlns:xlink="http://www.w3.org/1999/xlink" x="0px" y="0px"
	 width="400px" height="200px" viewBox="0 0 400 200" enable-background="new 0 0 400 200" xml:space="preserve">
<g>
	<path fill="#F69922" d="M91.2,119.6c0,1-0.8,1.8-1.8,1.8H48.5c-1,0-1.8-0.8-1.8-1.8V78.7c0-1,0.8-1.8,1.8-1.8h40.9
		c1,0,1.8,0.8,1.8,1.8L91.2,119.6L91.2,119.6z"/>
	
		<linearGradient id="SVGID_1_" gradientUnits="userSpaceOnUse" x1="518.3008" y1="-173.334" x2="518.3008" y2="-202.0501" gradientTransform="matrix(1 0 0 -1 -356 -85)">
		<stop  offset="0" style="stop-color:#6D6E71"/>
		<stop  offset="1" style="stop-color:#58595B"/>
	</linearGradient>
	<path fill="url(#SVGID_1_)" d="M219.1,109.5c-0.5,0.2-0.9,0.5-1.4,0.7c-1.4,0.6-2.7,0.8-4,0.8c-1.3,0-3.4-0.1-5.5-1.6
		c-2.9-2.1-4.2-5.6-4.2-8.7c0-6.4,5.2-9.5,9.4-9.5c1.5,0,3,0.4,4.2,1.1c2,1.4,2.6,3.1,2.9,4.1l-9.6,3.9l-3.2,0.2
		c1,5.2,4.6,8.2,8.4,8.2c2.1,0,3.6-0.7,5-1.4L219.1,109.5L219.1,109.5z M215.2,97.3c0.8-0.3,1.2-0.5,1.2-1.1c0-1.6-1.8-3.5-4.1-3.5
		c-1.6,0-4.7,1.3-4.7,5.7c0,0.7,0.1,1.4,0.1,2.2L215.2,97.3L215.2,97.3z M203.1,110.4l1.5-0.9c-0.7-0.1-1.4-0.1-2.1-0.2
		c-1.4-0.1-1.6-0.4-1.6-2v-9.5c0-5.8,0-10.8,0.4-14c0.2-1.4,0.6-1.7,1.8-2.4h-5.9l-3.1,1.5h3.2c0,1.9-0.2,4.5-0.2,6.6
		c-0.1,4.3-0.2,8.8-0.2,12v6.7c0,0.8-0.2,0.9-1.1,2.2H203.1L203.1,110.4z M189.7,93.3c0.9,0.8,2.9,2.4,2.9,5.5c0,3-1.7,4.5-3.4,5.8
		c-0.5,0.5-1.2,1.1-1.2,2c0,0.9,0.6,1.4,1.1,1.8l1.5,1.1c1.8,1.5,3.4,2.9,3.4,5.7c0,3.9-3.7,7.8-10.8,7.8c-5.9,0-8.8-2.8-8.8-5.9
		c0-1.5,0.7-3.6,3.2-5c2.5-1.6,6-1.8,7.8-1.9c-0.6-0.7-1.2-1.5-1.2-2.8c0-0.7,0.2-1.1,0.4-1.6c-0.5,0-0.9,0.1-1.3,0.1
		c-4.3,0-6.8-3.2-6.8-6.4c0-1.9,0.9-4,2.6-5.5c2.3-1.9,5.1-2.3,7.3-2.3h8.5l-2.6,1.5H189.7L189.7,93.3z M186.8,111.5
		c-0.3,0-0.5,0-0.9,0c-0.4,0-2.6,0.1-4.3,0.7c-0.9,0.3-3.5,1.3-3.5,4.2s2.8,5,7.2,5c3.9,0,6-1.9,6-4.4
		C191.2,114.9,189.9,113.8,186.8,111.5L186.8,111.5z M188,103.7c0.9-0.9,1-2.3,1-3c0-3-1.8-7.5-5.2-7.5c-1.1,0-2.2,0.5-2.9,1.4
		c-0.7,0.9-0.9,2-0.9,3c0,2.7,1.6,7.3,5.1,7.3C186.2,104.9,187.3,104.4,188,103.7L188,103.7z M164.3,111c-6.5,0-10-5.1-10-9.7
		c0-5.4,4.4-10,10.6-10c6,0,9.8,4.7,9.8,9.7C174.7,105.8,170.9,111,164.3,111L164.3,111z M169.4,107.6c1-1.3,1.2-3,1.2-4.6
		c0-3.6-1.7-10.5-6.8-10.5c-1.4,0-2.7,0.5-3.7,1.4c-1.6,1.4-1.9,3.2-1.9,5c0,4.1,2,10.7,7,10.7C166.8,109.7,168.4,109,169.4,107.6
		L169.4,107.6z M142.4,111c-6.5,0-10-5.1-10-9.7c0-5.4,4.4-10,10.6-10c6,0,9.8,4.7,9.8,9.7C152.9,105.8,149.1,111,142.4,111
		L142.4,111z M147.6,107.6c1-1.3,1.2-3,1.2-4.6c0-3.6-1.7-10.5-6.8-10.5c-1.4,0-2.7,0.5-3.7,1.4c-1.6,1.4-1.9,3.2-1.9,5
		c0,4.1,2,10.7,7,10.7C145,109.7,146.6,109,147.6,107.6L147.6,107.6z M129.8,109.5v-4.7c0-0.4,0-1.5,0.1-1.8
		c0.1-0.3,0.1-0.4,0.4-0.6l1-1h-8.2l-3.1,1.7l5.8-0.3v6.2c-1.2,0.5-2.4,1-4.9,1c-8.4,0-13.6-6.8-13.6-14c0-6.7,4.6-11.3,10.7-11.3
		c4.5,0,6.9,2.3,8.2,3.6l-1,1.5l1.3-0.3l3.2-3c-0.8-0.6-2.2-1.6-5.1-2.4c-1.8-0.5-3.8-0.8-5.9-0.8c-9.8,0-15.5,6.9-15.5,14.4
		c0,6.1,4,13.9,14.7,13.9c2.1,0,4.1-0.3,6.3-0.7L129.8,109.5L129.8,109.5z"/>
	<g>
		
			<linearGradient id="SVGID_2_" gradientUnits="userSpaceOnUse" x1="596.2578" y1="-173.334" x2="596.2578" y2="-202.05" gradientTransform="matrix(1 0 0 -1 -356 -85)">
			<stop  offset="0" style="stop-color:#6D6E71"/>
			<stop  offset="1" style="stop-color:#58595B"/>
		</linearGradient>
		<path fill="url(#SVGID_2_)" d="M247.5,110.9l-2.8-7.1h-9l-2.8,7.1h-2.6l8.9-22.5h2.2l8.8,22.5H247.5z M243.9,101.4l-2.6-7
			c-0.3-0.9-0.7-2-1-3.2c-0.2,1-0.5,2.1-1,3.2l-2.6,7H243.9z"/>
		
			<linearGradient id="SVGID_3_" gradientUnits="userSpaceOnUse" x1="615.1279" y1="-173.334" x2="615.1279" y2="-202.0502" gradientTransform="matrix(1 0 0 -1 -356 -85)">
			<stop  offset="0" style="stop-color:#6D6E71"/>
			<stop  offset="1" style="stop-color:#58595B"/>
		</linearGradient>
		<path fill="url(#SVGID_3_)" d="M263.6,110.9V100c0-1.4-0.3-2.4-0.9-3.1c-0.6-0.7-1.6-1-2.9-1c-1.8,0-3.1,0.5-3.9,1.4
			c-0.8,1-1.2,2.5-1.2,4.7v8.8h-2.5V94.1h2.1l0.4,2.3h0.1c0.5-0.8,1.3-1.5,2.2-1.9c0.9-0.5,2-0.7,3.2-0.7c2,0,3.6,0.5,4.6,1.5
			c1,1,1.5,2.5,1.5,4.7v11L263.6,110.9L263.6,110.9z"/>
		
			<linearGradient id="SVGID_4_" gradientUnits="userSpaceOnUse" x1="632.4346" y1="-173.3335" x2="632.4346" y2="-202.0505" gradientTransform="matrix(1 0 0 -1 -356 -85)">
			<stop  offset="0" style="stop-color:#6D6E71"/>
			<stop  offset="1" style="stop-color:#58595B"/>
		</linearGradient>
		<path fill="url(#SVGID_4_)" d="M281.3,110.9l-0.5-2.4h-0.1c-0.8,1.1-1.7,1.8-2.5,2.1c-0.8,0.4-1.9,0.6-3.1,0.6
			c-1.7,0-3-0.4-3.9-1.3c-0.9-0.9-1.4-2.1-1.4-3.7c0-3.4,2.7-5.2,8.2-5.3l2.9-0.1v-1c0-1.3-0.3-2.3-0.9-2.9
			c-0.6-0.6-1.5-0.9-2.7-0.9c-1.4,0-3,0.4-4.8,1.3l-0.8-2c0.8-0.4,1.7-0.8,2.7-1.1c1-0.3,2-0.4,3-0.4c2,0,3.5,0.4,4.5,1.3
			c1,0.9,1.5,2.3,1.5,4.3v11.5L281.3,110.9L281.3,110.9z M275.5,109.1c1.6,0,2.8-0.4,3.7-1.3c0.9-0.9,1.4-2.1,1.4-3.7v-1.5l-2.6,0.1
			c-2,0.1-3.5,0.4-4.4,0.9c-0.9,0.6-1.3,1.4-1.3,2.6c0,0.9,0.3,1.6,0.8,2.1C273.8,108.9,274.5,109.1,275.5,109.1z"/>
		
			<linearGradient id="SVGID_5_" gradientUnits="userSpaceOnUse" x1="645.2578" y1="-173.334" x2="645.2578" y2="-202.05" gradientTransform="matrix(1 0 0 -1 -356 -85)">
			<stop  offset="0" style="stop-color:#6D6E71"/>
			<stop  offset="1" style="stop-color:#58595B"/>
		</linearGradient>
		<path fill="url(#SVGID_5_)" d="M290.5,110.9H288V87h2.5V110.9z"/>
		
			<linearGradient id="SVGID_6_" gradientUnits="userSpaceOnUse" x1="656.8867" y1="-173.334" x2="656.8867" y2="-202.0505" gradientTransform="matrix(1 0 0 -1 -356 -85)">
			<stop  offset="0" style="stop-color:#6D6E71"/>
			<stop  offset="1" style="stop-color:#58595B"/>
		</linearGradient>
		<path fill="url(#SVGID_6_)" d="M293,94.1h2.7l3.7,9.6c0.8,2.2,1.3,3.8,1.5,4.7h0.1c0.1-0.5,0.4-1.4,0.8-2.7
			c0.4-1.3,1.8-5.2,4.2-11.7h2.7l-7.2,19.2c-0.7,1.9-1.6,3.2-2.5,4c-1,0.8-2.1,1.2-3.5,1.2c-0.8,0-1.5-0.1-2.3-0.3v-2
			c0.6,0.1,1.2,0.2,1.9,0.2c1.8,0,3-1,3.7-2.9l0.9-2.4L293,94.1z"/>
		
			<linearGradient id="SVGID_7_" gradientUnits="userSpaceOnUse" x1="669.9062" y1="-173.334" x2="669.9062" y2="-202.0494" gradientTransform="matrix(1 0 0 -1 -356 -85)">
			<stop  offset="0" style="stop-color:#6D6E71"/>
			<stop  offset="1" style="stop-color:#58595B"/>
		</linearGradient>
		<path fill="url(#SVGID_7_)" d="M316.6,109.1c0.5,0,0.9,0,1.3-0.1c0.4-0.1,0.8-0.1,1-0.2v1.9c-0.3,0.1-0.7,0.2-1.2,0.3
			c-0.5,0.1-1,0.1-1.4,0.1c-3.3,0-4.9-1.7-4.9-5.1v-10h-2.4v-1.2l2.4-1.1l1.1-3.6h1.5v3.9h4.9v2h-4.9v9.9c0,1,0.2,1.8,0.7,2.3
			C315.1,108.9,315.7,109.1,316.6,109.1z"/>
		
			<linearGradient id="SVGID_8_" gradientUnits="userSpaceOnUse" x1="678.6348" y1="-173.334" x2="678.6348" y2="-202.05" gradientTransform="matrix(1 0 0 -1 -356 -85)">
			<stop  offset="0" style="stop-color:#6D6E71"/>
			<stop  offset="1" style="stop-color:#58595B"/>
		</linearGradient>
		<path fill="url(#SVGID_8_)" d="M321.1,89.5c0-0.6,0.1-1,0.4-1.3c0.3-0.3,0.6-0.4,1.1-0.4c0.4,0,0.8,0.1,1.1,0.4
			c0.3,0.3,0.4,0.7,0.4,1.3c0,0.6-0.1,1-0.4,1.3c-0.3,0.3-0.6,0.4-1.1,0.4c-0.4,0-0.8-0.1-1.1-0.4C321.3,90.5,321.1,90.1,321.1,89.5
			z M323.9,110.9h-2.5V94.1h2.5V110.9z"/>
		
			<linearGradient id="SVGID_9_" gradientUnits="userSpaceOnUse" x1="688.627" y1="-173.3335" x2="688.627" y2="-202.0505" gradientTransform="matrix(1 0 0 -1 -356 -85)">
			<stop  offset="0" style="stop-color:#6D6E71"/>
			<stop  offset="1" style="stop-color:#58595B"/>
		</linearGradient>
		<path fill="url(#SVGID_9_)" d="M334.2,111.2c-2.4,0-4.3-0.8-5.7-2.3c-1.3-1.5-2-3.6-2-6.4c0-2.8,0.7-5,2-6.5
			c1.4-1.5,3.3-2.3,5.8-2.3c0.8,0,1.6,0.1,2.4,0.3c0.8,0.2,1.4,0.4,1.9,0.6l-0.8,2.2c-0.6-0.2-1.2-0.4-1.8-0.6
			c-0.7-0.1-1.3-0.2-1.8-0.2c-3.4,0-5.1,2.2-5.1,6.5c0,2.1,0.4,3.7,1.3,4.8s2.1,1.7,3.7,1.7c1.4,0,2.8-0.3,4.3-0.9v2.3
			C337.3,110.9,335.9,111.2,334.2,111.2z"/>
		
			<linearGradient id="SVGID_10_" gradientUnits="userSpaceOnUse" x1="703.3477" y1="-173.334" x2="703.3477" y2="-202.0494" gradientTransform="matrix(1 0 0 -1 -356 -85)">
			<stop  offset="0" style="stop-color:#6D6E71"/>
			<stop  offset="1" style="stop-color:#58595B"/>
		</linearGradient>
		<path fill="url(#SVGID_10_)" d="M353.3,106.3c0,1.6-0.6,2.8-1.8,3.6c-1.2,0.8-2.8,1.3-4.9,1.3c-2.2,0-4-0.4-5.2-1.1v-2.4
			c0.8,0.4,1.7,0.7,2.6,1c0.9,0.2,1.8,0.4,2.7,0.4c1.3,0,2.4-0.2,3.1-0.6c0.7-0.4,1.1-1.1,1.1-1.9c0-0.7-0.3-1.2-0.9-1.7
			c-0.6-0.5-1.7-1-3.3-1.7c-1.6-0.6-2.7-1.1-3.3-1.5c-0.7-0.4-1.2-0.9-1.5-1.5c-0.3-0.6-0.5-1.2-0.5-2c0-1.4,0.6-2.5,1.7-3.2
			c1.1-0.8,2.6-1.2,4.6-1.2c1.8,0,3.6,0.4,5.3,1.1l-0.9,2.1c-1.7-0.7-3.2-1-4.6-1c-1.2,0-2.1,0.2-2.7,0.6c-0.6,0.4-0.9,0.9-0.9,1.6
			c0,0.5,0.1,0.8,0.3,1.2c0.2,0.3,0.6,0.6,1.1,0.9c0.5,0.3,1.5,0.7,2.9,1.2c2,0.7,3.3,1.5,4,2.2C353,104.3,353.3,105.2,353.3,106.3z
			"/>
	</g>
	<g>
		<polygon fill="#FFFFFF" points="68.3,104 63.5,99.2 63.5,109.3 68.3,114.1 91.2,91.2 91.2,81 		"/>
		<polygon fill="#FFFFFF" points="63.5,99.2 58.4,94.1 46.7,105.8 46.7,116 58.4,104.3 		"/>
	</g>
	<g>
		<path fill="#EF5925" d="M63.5,109.3l-5.1-5.1L46.7,116v3.7c0,1,0.8,1.8,1.8,1.8h40.9c1,0,1.8-0.8,1.8-1.8V91.2l-23,23L63.5,109.3z
			"/>
	</g>
</g>
</svg>
