<?xml version="1.0" encoding="utf-8"?>
<!-- Generator: Adobe Illustrator 16.0.0, SVG Export Plug-In . SVG Version: 6.00 Build 0)  -->
<!DOCTYPE svg PUBLIC "-//W3C//DTD SVG 1.1//EN" "http://www.w3.org/Graphics/SVG/1.1/DTD/svg11.dtd">
<svg version="1.1" id="Layer_1" xmlns="http://www.w3.org/2000/svg" xmlns:xlink="http://www.w3.org/1999/xlink" x="0px" y="0px"
	 width="400px" height="200px" viewBox="0 0 400 200" enable-background="new 0 0 400 200" xml:space="preserve">
<path opacity="0.54" enable-background="new    " d="M121.363,96.802v3.668h8.765c-0.268,2.057-0.954,3.562-1.997,4.619
	c-1.282,1.284-3.279,2.685-6.768,2.685c-5.396,0-9.614-4.354-9.614-9.749c0-5.396,4.218-9.749,9.614-9.749
	c2.907,0,5.039,1.148,6.604,2.623l2.579-2.579c-2.176-2.117-5.098-3.726-9.182-3.726c-7.393,0-13.609,6.022-13.609,13.415
	c0,7.394,6.216,13.415,13.609,13.415c3.995,0,7.006-1.312,9.361-3.755c2.416-2.415,3.175-5.828,3.175-8.571
	c0-0.85-0.06-1.64-0.193-2.296H121.363z M144.855,93.821c-4.785,0-8.69,3.637-8.69,8.661c0,4.979,3.906,8.66,8.69,8.66
	s8.69-3.667,8.69-8.66C153.546,97.458,149.64,93.821,144.855,93.821z M144.855,107.729c-2.624,0-4.889-2.161-4.889-5.247
	c0-3.116,2.266-5.248,4.889-5.248s4.89,2.131,4.89,5.248C149.745,105.567,147.479,107.729,144.855,107.729z M187.457,95.759h-0.134
	c-0.85-1.014-2.49-1.938-4.562-1.938c-4.323,0-8.094,3.771-8.094,8.661c0,4.858,3.771,8.66,8.094,8.66
	c2.072,0,3.711-0.924,4.562-1.968h0.134v1.207c0,3.31-1.773,5.084-4.621,5.084c-2.325,0-3.771-1.669-4.367-3.087l-3.309,1.371
	c0.954,2.297,3.473,5.113,7.676,5.113c4.457,0,8.229-2.623,8.229-9.018V94.268h-3.607V95.759L187.457,95.759z M183.089,107.729
	c-2.624,0-4.621-2.235-4.621-5.247c0-3.056,1.997-5.248,4.621-5.248c2.594,0,4.621,2.237,4.621,5.278
	C187.725,105.537,185.684,107.729,183.089,107.729z M164.233,93.821c-4.785,0-8.69,3.637-8.69,8.661c0,4.979,3.906,8.66,8.69,8.66
	s8.69-3.667,8.69-8.66C172.923,97.458,169.018,93.821,164.233,93.821z M164.233,107.729c-2.624,0-4.89-2.161-4.89-5.247
	c0-3.116,2.266-5.248,4.89-5.248s4.889,2.131,4.889,5.248C169.122,105.567,166.857,107.729,164.233,107.729z M194.045,84.952h3.742
	v26.19h-3.742V84.952z M209.339,107.729c-1.938,0-3.309-0.88-4.204-2.624l11.582-4.784l-0.387-0.984
	c-0.715-1.938-2.921-5.515-7.409-5.515c-4.456,0-8.168,3.503-8.168,8.661c0,4.858,3.667,8.66,8.586,8.66
	c3.965,0,6.261-2.43,7.215-3.83l-2.951-1.968C212.618,106.773,211.277,107.729,209.339,107.729z M209.07,97.071
	c1.535,0,2.847,0.79,3.279,1.908l-7.824,3.235C204.525,98.576,207.103,97.071,209.07,97.071z M222.859,111.156h3.369l2.31-6.394
	h9.927l2.28,6.394h3.37l-8.928-23.611h-3.429L222.859,111.156z M229.552,101.915l3.86-10.643h0.134l3.861,10.643H229.552z
	 M252.597,111.679c2.578,0,4.577-1.282,5.5-2.772h0.134v2.235h2.906V87.575h-3.04v7.423l0.134,2.236h-0.134
	c-0.923-1.49-2.936-2.772-5.5-2.772c-4.083,0-7.677,3.667-7.677,8.601C244.92,107.995,248.514,111.679,252.597,111.679z
	 M253.089,108.906c-2.698,0-5.143-2.207-5.143-5.844s2.444-5.843,5.143-5.843s5.142,2.146,5.142,5.843
	C258.23,106.758,255.787,108.906,253.089,108.906z M292.858,87.575h-3.161l-4.725,18.559h-0.134l-5.113-15.399h-2.832l-5.113,15.399
	h-0.134l-4.979-18.559h-3.158l6.559,23.611h3.1l5.082-15.562h0.135l5.084,15.562h3.1L292.858,87.575z M300.804,94.462
	c-4.846,0-8.303,3.697-8.303,8.601c0,4.905,3.457,8.601,8.303,8.601c4.843,0,8.303-3.695,8.303-8.601
	C309.106,98.159,305.646,94.462,300.804,94.462z M300.804,108.906c-2.698,0-5.278-2.148-5.278-5.844c0-3.697,2.58-5.843,5.278-5.843
	c2.697,0,5.275,2.146,5.275,5.843C306.079,106.758,303.501,108.906,300.804,108.906z M314.576,111.156v-8.84
	c0-2.966,2.116-4.709,4.188-4.709c0.656,0,1.192,0.06,1.61,0.224l1.146-2.833c-0.624-0.268-1.28-0.402-2.279-0.402
	c-1.686,0-4.024,1.193-4.68,3.041h-0.136v-2.639h-2.906v16.158H314.576L314.576,111.156z M330.094,111.679
	c2.578,0,4.575-1.282,5.5-2.772h0.134v2.235h2.906V87.575h-3.04v7.423l0.134,2.236h-0.134c-0.925-1.49-2.938-2.772-5.5-2.772
	c-4.085,0-7.677,3.667-7.677,8.601C322.417,107.995,326.009,111.679,330.094,111.679z M330.586,108.906
	c-2.698,0-5.145-2.207-5.145-5.844s2.446-5.843,5.145-5.843s5.142,2.146,5.142,5.843
	C335.728,106.758,333.298,108.906,330.586,108.906z M347.354,111.679c3.786,0,6.365-2.207,6.365-5.084
	c0-1.981-1.253-3.949-4.458-4.711l-3.205-0.758c-1.28-0.299-2.145-0.866-2.145-1.88c0-1.311,1.489-2.071,3.205-2.071
	c1.579,0,3.069,0.625,3.695,2.146l2.64-1.088c-0.985-2.475-3.429-3.757-6.232-3.757c-3.368,0-6.395,1.878-6.395,4.814
	c0,2.833,2.832,4.129,4.324,4.486l3.264,0.791c1.713,0.432,2.206,1.312,2.206,2.146c0,1.355-1.357,2.28-3.234,2.28
	c-1.953,0-3.533-0.984-4.384-3.04l-2.698,1.117C341.258,109.368,343.465,111.679,347.354,111.679z"/>
<g>
	<defs>
		<path id="SVGID_1_" d="M79.433,77.141H64.362l-14.906,44.719h11.12c2.207,0,4.159-1.402,4.859-3.488l6.424-18.9l6.335,18.9
			c0.687,2.086,2.654,3.488,4.86,3.488h11.12L79.433,77.141z"/>
	</defs>
	<clipPath id="SVGID_2_">
		<use xlink:href="#SVGID_1_"  overflow="visible"/>
	</clipPath>
	<path clip-path="url(#SVGID_2_)" fill="#0F9D58" d="M94.175,121.859L79.433,77.141H64.362l13.833,41.23
		c0.687,2.086,2.654,3.488,4.86,3.488H94.175z"/>
</g>
<g>
	<defs>
		<path id="SVGID_3_" d="M79.433,77.141H64.362l-14.906,44.719h11.12c2.207,0,4.159-1.402,4.859-3.488l6.424-18.9l6.335,18.9
			c0.687,2.086,2.654,3.488,4.86,3.488h11.12L79.433,77.141z"/>
	</defs>
	<clipPath id="SVGID_4_">
		<use xlink:href="#SVGID_3_"  overflow="visible"/>
	</clipPath>
	<g clip-path="url(#SVGID_4_)">
		
			<image overflow="visible" opacity="0.2" enable-background="new    " width="147" height="205" xlink:href="45DB682A7C1B75E7.png"  transform="matrix(0.2462 0 0 0.2487 47.4229 75.1079)">
		</image>
		<path fill="#4285F4" d="M49.457,121.859l14.906-44.719h15.071l-13.998,41.23c-0.686,2.086-2.653,3.488-4.859,3.488H49.457z"/>
	</g>
</g>
<g>
	<defs>
		<path id="SVGID_5_" d="M79.433,77.141H64.362l-14.906,44.719h11.12c2.207,0,4.159-1.402,4.859-3.488l6.424-18.9l6.335,18.9
			c0.687,2.086,2.654,3.488,4.86,3.488h11.12L79.433,77.141z"/>
	</defs>
	<clipPath id="SVGID_6_">
		<use xlink:href="#SVGID_5_"  overflow="visible"/>
	</clipPath>
	
		<radialGradient id="SVGID_7_" cx="634.6914" cy="938.6807" r="40.3037" gradientTransform="matrix(0.7453 0 0 0.7453 -400.2066 -599.1287)" gradientUnits="userSpaceOnUse">
		<stop  offset="0" style="stop-color:#263238;stop-opacity:0.2"/>
		<stop  offset="1" style="stop-color:#263238;stop-opacity:0.02"/>
	</radialGradient>
	<path clip-path="url(#SVGID_6_)" fill="url(#SVGID_7_)" d="M71.86,99.471l0.03,0.104l22.285,22.285L79.433,77.141L71.86,99.471z"/>
</g>
<g>
	<defs>
		<path id="SVGID_8_" d="M79.433,77.141H64.362l-14.906,44.719h11.12c2.207,0,4.159-1.402,4.859-3.488l6.424-18.9l6.335,18.9
			c0.687,2.086,2.654,3.488,4.86,3.488h11.12L79.433,77.141z"/>
	</defs>
	<clipPath id="SVGID_9_">
		<use xlink:href="#SVGID_8_"  overflow="visible"/>
	</clipPath>
	<path opacity="0.2" clip-path="url(#SVGID_9_)" fill="#FFFFFF" enable-background="new    " d="M79.358,77.394l0.075-0.253H64.362
		l-14.906,44.719h0.089l14.816-44.465H79.358z"/>
</g>
<g>
	<defs>
		<path id="SVGID_10_" d="M79.433,77.141H64.362l-14.906,44.719h11.12c2.207,0,4.159-1.402,4.859-3.488l6.424-18.9l6.335,18.9
			c0.687,2.086,2.654,3.488,4.86,3.488h11.12L79.433,77.141z"/>
	</defs>
	<clipPath id="SVGID_11_">
		<use xlink:href="#SVGID_10_"  overflow="visible"/>
	</clipPath>
	<path opacity="0.2" clip-path="url(#SVGID_11_)" fill="#1A237E" enable-background="new    " d="M65.436,118.116
		c-0.686,2.089-2.653,3.489-4.859,3.489h-11.03l-0.089,0.254h11.12c2.207,0,4.159-1.402,4.859-3.488l13.998-41.23h-0.09
		L65.436,118.116z"/>
</g>
<g>
	<defs>
		<path id="SVGID_12_" d="M79.433,77.141H64.362l-14.906,44.719h11.12c2.207,0,4.159-1.402,4.859-3.488l6.424-18.9l6.335,18.9
			c0.687,2.086,2.654,3.488,4.86,3.488h11.12L79.433,77.141z"/>
	</defs>
	<clipPath id="SVGID_13_">
		<use xlink:href="#SVGID_12_"  overflow="visible"/>
	</clipPath>
	<path opacity="0.2" clip-path="url(#SVGID_13_)" fill="#263238" enable-background="new    " d="M83.055,121.605
		c-2.207,0-4.159-1.4-4.86-3.489L71.89,99.351l-0.045,0.135l6.335,18.901c0.686,2.086,2.654,3.488,4.859,3.488h11.135l-0.089-0.255
		h-11.03V121.605z"/>
</g>
<g>
	<defs>
		<path id="SVGID_14_" d="M79.433,77.141H64.362l-14.906,44.719h11.12c2.207,0,4.159-1.402,4.859-3.488l6.424-18.9l6.335,18.9
			c0.687,2.086,2.654,3.488,4.86,3.488h11.12L79.433,77.141z"/>
	</defs>
	<clipPath id="SVGID_15_">
		<use xlink:href="#SVGID_14_"  overflow="visible"/>
	</clipPath>
	<path opacity="0.2" clip-path="url(#SVGID_15_)" fill="#FFFFFF" enable-background="new    " d="M79.433,77.394l14.652,44.465
		h0.089L79.433,77.141V77.394z"/>
</g>
<radialGradient id="SVGID_16_" cx="619.5195" cy="919.4736" r="64.6303" gradientTransform="matrix(0.7453 0 0 0.7453 -400.2066 -599.1287)" gradientUnits="userSpaceOnUse">
	<stop  offset="0" style="stop-color:#FFFFFF"/>
	<stop  offset="1" style="stop-color:#FFFFFF;stop-opacity:0"/>
</radialGradient>
<path fill="url(#SVGID_16_)" fill-opacity="0.1" d="M79.433,77.141H64.362l-14.906,44.719h11.12c2.207,0,4.159-1.402,4.859-3.488
	l6.424-18.9l6.335,18.9c0.687,2.086,2.654,3.488,4.86,3.488h11.12L79.433,77.141z"/>
</svg>
