<?xml version="1.0" encoding="utf-8"?>
<!-- Generator: Adobe Illustrator 16.0.0, SVG Export Plug-In . SVG Version: 6.00 Build 0)  -->
<!DOCTYPE svg PUBLIC "-//W3C//DTD SVG 1.1//EN" "http://www.w3.org/Graphics/SVG/1.1/DTD/svg11.dtd">
<svg version="1.1" id="Layer_1" xmlns="http://www.w3.org/2000/svg" xmlns:xlink="http://www.w3.org/1999/xlink" x="0px" y="0px"
	 width="400px" height="200px" viewBox="0 0 400 200" enable-background="new 0 0 400 200" xml:space="preserve">
<g>
	<path fill="#9B5C8F" d="M81.8,74.6h69.5c4.4,0,8,3.6,8,8v26.5c0,4.4-3.6,8-8,8h-24.9l3.4,8.4l-15.1-8.4H81.9c-4.4,0-8-3.6-8-8V82.5
		C73.9,78.2,77.4,74.6,81.8,74.6z"/>
	<path fill="#FFFFFF" d="M78.2,81.8c0.5-0.7,1.2-1,2.2-1.1c1.8-0.1,2.8,0.7,3,2.5c1.1,7.3,2.3,13.5,3.5,18.5l7.6-14.6
		c0.7-1.3,1.6-2,2.6-2.1c1.5-0.1,2.5,0.9,2.9,2.9c0.9,4.6,2,8.6,3.3,11.9c0.9-8.9,2.4-15.3,4.6-19.2c0.5-1,1.3-1.5,2.3-1.5
		c0.8-0.1,1.5,0.2,2.2,0.7c0.7,0.5,1,1.2,1.1,2c0,0.6-0.1,1.2-0.3,1.7c-1.4,2.5-2.5,6.7-3.4,12.6c-0.9,5.7-1.2,10.1-1,13.3
		c0.1,0.9-0.1,1.6-0.4,2.3c-0.4,0.8-1,1.2-1.9,1.3c-0.9,0.1-1.9-0.3-2.8-1.3c-3.2-3.3-5.8-8.3-7.7-14.9c-2.3,4.5-3.9,7.8-5,10.1
		c-2.1,3.9-3.8,6-5.3,6.1c-0.9,0.1-1.7-0.7-2.4-2.4c-1.8-4.6-3.7-13.4-5.8-26.5C77.5,83.2,77.7,82.4,78.2,81.8z"/>
	<path fill="#FFFFFF" d="M153.3,87.3c-1.3-2.2-3.1-3.5-5.6-4c-0.7-0.1-1.3-0.2-1.9-0.2c-3.4,0-6.1,1.7-8.2,5.2
		c-1.8,3-2.7,6.2-2.7,9.8c0,2.7,0.6,5,1.7,6.9c1.3,2.2,3.1,3.5,5.6,4.1c0.7,0.1,1.3,0.2,1.9,0.2c3.4,0,6.1-1.7,8.2-5.2
		c1.8-3,2.7-6.3,2.7-9.9C154.9,91.4,154.4,89.2,153.3,87.3L153.3,87.3z M148.9,97c-0.5,2.3-1.4,4-2.7,5.2c-1,0.9-2,1.3-2.8,1.1
		c-0.8-0.2-1.5-0.9-2.1-2.3c-0.4-1.1-0.6-2.2-0.6-3.2c0-0.9,0.1-1.8,0.2-2.6c0.3-1.4,0.9-2.8,1.9-4.2c1.2-1.7,2.4-2.4,3.6-2.2
		c0.8,0.2,1.5,0.9,2.1,2.3c0.4,1.1,0.6,2.2,0.6,3.2C149.1,95.3,149,96.2,148.9,97L148.9,97z"/>
	<path fill="#FFFFFF" d="M131.4,87.3c-1.3-2.2-3.1-3.5-5.6-4c-0.7-0.1-1.3-0.2-1.9-0.2c-3.4,0-6.1,1.7-8.2,5.2
		c-1.8,3-2.7,6.2-2.7,9.8c0,2.7,0.6,5,1.7,6.9c1.3,2.2,3.1,3.5,5.6,4.1c0.7,0.1,1.3,0.2,1.9,0.2c3.4,0,6.1-1.7,8.2-5.2
		c1.8-3,2.7-6.3,2.7-9.9C133,91.4,132.5,89.2,131.4,87.3L131.4,87.3z M127,97c-0.5,2.3-1.4,4-2.7,5.2c-1,0.9-2,1.3-2.8,1.1
		c-0.8-0.2-1.5-0.9-2.1-2.3c-0.4-1.1-0.6-2.2-0.6-3.2c0-0.9,0.1-1.8,0.2-2.6c0.3-1.4,0.9-2.8,1.9-4.2c1.2-1.7,2.4-2.4,3.6-2.2
		c0.8,0.2,1.5,0.9,2.1,2.3c0.4,1.1,0.6,2.2,0.6,3.2C127.2,95.3,127.1,96.2,127,97L127,97z"/>
	<g>
		<g>
			<path d="M168.2,87c-2.3,2.3-3.5,5.2-3.5,8.8c0,3.8,1.2,6.9,3.5,9.2c2.3,2.3,5.3,3.5,9,3.5c1.1,0,2.3-0.2,3.6-0.6v-5.7
				c-1.2,0.4-2.3,0.5-3.2,0.5c-1.9,0-3.3-0.6-4.4-1.9c-1.1-1.3-1.7-2.9-1.7-5.1c0-2,0.6-3.6,1.6-4.9c1.1-1.3,2.5-1.9,4.2-1.9
				c1.1,0,2.2,0.2,3.5,0.5V84c-1.2-0.3-2.4-0.5-3.8-0.5C173.4,83.5,170.5,84.7,168.2,87z M192.4,83.5c-3.2,0-5.7,1.1-7.5,3.2
				c-1.8,2.1-2.7,5.1-2.7,9c0,4.2,0.9,7.3,2.7,9.5c1.8,2.2,4.4,3.3,7.8,3.3c3.3,0,5.9-1.1,7.6-3.3c1.8-2.2,2.7-5.3,2.7-9.3
				c0-4-0.9-7.1-2.7-9.2C198.4,84.6,195.8,83.5,192.4,83.5z M195.2,101.7c-0.6,1-1.6,1.5-2.8,1.5c-1.1,0-2-0.5-2.5-1.5
				c-0.6-1-0.9-2.9-0.9-5.9c0-4.6,1.2-6.8,3.5-6.8c2.4,0,3.7,2.3,3.7,6.9C196.1,98.7,195.8,100.7,195.2,101.7z M220.3,84.2l-1.3,5.3
				c-0.3,1.4-0.6,2.8-0.9,4.2l-0.7,3.7c-0.7-3.7-1.6-8.1-2.7-13.2h-8.1l-3,23.8h6.1l1.6-16.4l4.2,16.4h4.3l4-16.3l1.7,16.3h6.4
				l-3.2-23.8H220.3z M249.4,84.2l-1.3,5.3c-0.3,1.4-0.6,2.8-0.9,4.2l-0.7,3.7c-0.7-3.7-1.6-8.1-2.7-13.2h-8.1l-3,23.8h6.1l1.6-16.4
				l4.2,16.4h4.3l3.9-16.3l1.7,16.3h6.4l-3.2-23.8H249.4z M269.1,98.6h5.7v-4.9h-5.7v-4.4h6.6v-5.1h-13V108h13v-5.1h-6.6L269.1,98.6
				L269.1,98.6z M293.8,94.8c0.7-1.1,1-2.2,1-3.4c0-2.2-0.9-4-2.6-5.3c-1.7-1.3-4.2-2-7.2-2h-7.5V108h6.4V97.1h0.1l5.2,10.8h6.8
				L291,97.2C292.2,96.7,293.2,95.9,293.8,94.8z M284,94.4v-5.7c1.5,0,2.6,0.3,3.3,0.8c0.7,0.5,1,1.3,1,2.4
				C288.2,93.5,286.8,94.4,284,94.4z M298.6,87c-2.3,2.3-3.5,5.2-3.5,8.8c0,3.8,1.2,6.9,3.5,9.2c2.3,2.3,5.3,3.5,9,3.5
				c1.1,0,2.3-0.2,3.6-0.6v-5.7c-1.2,0.4-2.3,0.5-3.2,0.5c-1.9,0-3.3-0.6-4.4-1.9c-1.1-1.3-1.7-2.9-1.7-5.1c0-2,0.6-3.6,1.6-4.9
				c1.1-1.3,2.5-1.9,4.2-1.9c1.1,0,2.2,0.2,3.5,0.5V84c-1.2-0.3-2.4-0.5-3.8-0.5C303.9,83.5,300.9,84.7,298.6,87z M319.4,102.9v-4.3
				h5.7v-4.9h-5.7v-4.4h6.6v-5.1h-13V108h13v-5.1L319.4,102.9L319.4,102.9z"/>
		</g>
	</g>
</g>
</svg>
