<?xml version="1.0" encoding="utf-8"?>
<!-- Generator: Adobe Illustrator 16.0.0, SVG Export Plug-In . SVG Version: 6.00 Build 0)  -->
<!DOCTYPE svg PUBLIC "-//W3C//DTD SVG 1.1//EN" "http://www.w3.org/Graphics/SVG/1.1/DTD/svg11.dtd">
<svg version="1.1" id="Layer_1" xmlns="http://www.w3.org/2000/svg" xmlns:xlink="http://www.w3.org/1999/xlink" x="0px" y="0px"
	 width="400px" height="200px" viewBox="0 0 400 200" enable-background="new 0 0 400 200" xml:space="preserve">
<g>
	<g>
		<path d="M144.8,99.1L144.8,99.1L144.8,99.1z"/>
		<path d="M317,114.7L317,114.7c5.3,0,8.9-3.6,9-8.7c0-2.5-0.7-4.9-2.1-6.6c-1.4-1.8-3.4-2.7-5.8-2.8h0c-3.2,0-6.1,2.4-9,7.4
			l-0.2,0.4l-0.1-0.4c-0.7-2.1-1.4-3.9-1.8-5c-0.3-0.7-0.4-1.1-0.4-1.2c-0.1-0.5-0.6-0.9-1.2-0.9c-0.4,0-0.8,0.1-1.1,0.4
			c-0.4,0.2-0.6,0.5-0.6,0.9l0,0.1c-2.9,9.1-5.3,13.5-7.3,13.5c-0.3,0-0.5-0.1-0.7-0.3c-0.5-0.6-0.4-2-0.2-3.9
			c0.1-1.4,0.3-3,0.2-4.7c-0.1-3.3-1.9-5.2-4.8-5.3c-3.7,0-6,3.9-7.1,6.2l-0.3,0.7l-0.1-0.8c-0.3-2.9-1.2-6.3-4.3-6.3
			c-3.6,0-6.3,4.2-7.9,7.7l-0.4,0.9l0-1c0.2-4.7,0.4-7.4,0.5-8.2c0.1-0.8,0.1-1.3-0.2-1.6c-0.2-0.3-0.7-0.4-1.3-0.3
			c-1.1,0.1-1.7,0.8-2.6,3.1c-1.4,3.8-5.1,12.7-8,12.7c-0.6,0-1-0.2-1.4-0.6c-1.2-1.4-0.7-5.2-0.1-10.5l0.1-0.4
			c0.3-2.5-0.2-3-1.6-3.3c-0.1,0-0.3,0-0.4,0c-1.1,0-1.6,1-2.6,3.9c-1.8,5.1-4.1,10.5-6.8,10.5c-0.1,0-0.2,0-0.3,0
			c-1.4-0.2-1.4-2.4-1.4-5.1c0-1.5,0-3.1-0.2-4.6c-0.4-2.7-2-4.3-4.1-4.4c-4.3,0-7.1,5.5-8.5,8.7l-0.3,0.7l-0.1-0.8
			c-0.2-1.4-0.4-3.6-0.5-6.3l0-0.1l0-0.1c8-10,11.5-17.3,11.6-23.5c0-4-1.8-6.3-4.9-6.4c-2.3,0-7.6,1.9-9.5,19.3
			c-0.3,3.2-0.5,6.5-0.6,9.9l0,0.1l0,0.1c-3.6,5.3-11.4,14.3-19,14.3c-6.9,0-12.4-5.6-12.4-15.4c0-13.2,9.3-21.3,16.3-21.3l0.1,0
			c1.5,0,2.8,0.4,3.8,1.2c1,0.8,1.5,2,1.5,3.3c0,1.8-0.6,2.8-1.2,3.7c-0.1,0.2-0.3,0.5-0.4,0.7c-0.1,0.2-0.3,0.6-0.1,0.9
			c0.2,0.3,0.7,0.5,1.2,0.5c1.7,0,4.2-2.4,4.2-6.1c0-3.8-3.2-7.7-8.9-7.7c-8.7,0-20.3,9.5-20.3,25c0,10.9,6.8,18.5,16.1,18.5
			c6.6,0,13.1-4.7,18.9-12.6l0.4-0.5l0,0.6c0.1,2.9,0.3,5.2,0.5,6.8c0.1,1.1,0.2,1.8,0.2,2.3c0,0.9,0.1,1.6,0.5,2
			c0.3,0.4,0.8,0.6,1.6,0.6c1.3,0,1.6-0.9,2.1-3.1l0.1-0.6c0.6-2.6,3-11.3,6.5-11.3c0.6,0,1,0.2,1.3,0.5c0.8,0.8,0.7,2.5,0.6,4.5
			c-0.1,1.2-0.1,2.5,0,3.7c0.3,3.3,1.8,5,4.4,5c2.7,0,5.5-2.9,7-5.6l0.3-0.5l0.1,0.6c0.3,1.4,1.5,6.2,5.4,6.2
			c3.5,0,6.5-3.7,9.8-11.2l0.4-1l0,1.1c-0.1,2.9-0.2,6.4-0.2,9.1c0,2.1,0.2,2.9,1.2,2.9c0.1,0,0.1,0,0.2,0c0.9,0,1.6-0.6,1.9-1.6
			c2.5-8.6,4.6-12.6,6.7-12.6c2.1,0,2.3,3.8,2.4,10.5l0,0.5c0.1,2.3,0.1,3.4,1.6,3.4c1.1,0,1.4-0.9,1.9-3c0.1-0.4,0.2-0.9,0.4-1.3
			c2-6.9,3.6-9.7,5.7-9.7c1.8,0,1.9,1.8,1.9,2.4c0.1,1.3-0.1,2.6-0.2,3.9c-0.1,1.2-0.2,2.4-0.2,3.6c0.1,2.7,1.6,4.2,4.2,4.2
			c3.4,0,6.4-3.9,9-11.6l0.2-0.5l0.2,0.5c0.5,1.2,1.1,2.9,1.7,4.8l0,0.1l0,0.1c-2.6,5.7-4.4,12-4.4,15.4c0,4.5,2,7.4,5.1,7.4h0.1
			c1.7,0,5.7-0.7,5.8-7.1c0-2.6-0.6-6.3-1.8-11l-0.1-0.5l0.5,0.3C313.4,114.1,315.2,114.7,317,114.7z M230.6,93
			c0.1-1.6,0.2-3.2,0.4-4.6c1.2-9.5,3.8-16.1,6.3-16.1h0c1.2,0,1.8,0.9,1.8,2.6c0,4.3-2.8,10.4-8.1,18.2l-0.4,0.6L230.6,93z
			 M309.3,127.2c-0.4,0.5-0.9,0.8-1.6,0.8c-0.8,0-1.4-0.3-1.8-0.8c-1.1-1.5-0.8-5,1-11.5c0.2-0.8,0.5-1.5,0.7-2.3l0.2-0.6l0.2,0.6
			C310.2,120.8,310.6,125.4,309.3,127.2z M310,108.2L310,108.2l-0.1-0.3l0-0.1c2.4-5,5.2-7.9,7.7-7.9h0c2.8,0,4.6,2.5,4.6,6
			c0,2.3-1.1,3.7-1.9,4.4c-1,0.8-2.3,1.3-3.6,1.3C313.5,111.6,311.3,109.7,310,108.2z"/>
		<path d="M317.6,100.1L317.6,100.1L317.6,100.1z"/>
		<path d="M154.3,113.9c3.8-0.3,6.8-5.4,7.9-7.6l0.3-0.6l0.1,0.6c0.5,3.1,2.2,8.3,7.5,8.3h0c2.3,0,4.8-1.4,7.4-4l0.2-0.2l0.1,0.2
			c1.8,2.9,4.1,4.5,6.6,4.4c3.7-0.2,5.9-2.8,6.1-4.6c0-0.5-0.1-0.9-0.3-1.2c-0.3-0.4-0.8-0.4-1.2-0.1l-0.2,0.2
			c-0.9,0.8-2.5,2.4-4.2,2.4c-2.1,0.1-3.7-1.2-4.7-3.8l0-0.1l0.1-0.1c5.9-7.7,10-19.3,9.6-27.2c-0.2-3.6-1.2-8-5.2-8
			c-0.1,0-0.2,0-0.3,0c-1.5,0.1-2.9,0.8-4.1,2.1c-3.7,4.1-5.6,14.2-4.9,25.8c0.1,2.4,0.6,4.6,1.2,6.7l0,0.1l-0.1,0.1
			c-2.2,2.5-4.3,3.9-6,3.9c-4.1,0-4-6.9-3.7-12.7c0.1-1.2,0.2-2-0.2-2.5c-0.3-0.3-0.7-0.5-1.3-0.5h-0.1c-1.5,0-1.8,0.3-2.5,2.5
			c-1.6,4.5-4.7,12.2-7.8,12.2c-0.9,0-1.5-0.3-2-0.9c-1.5-1.9-0.4-6.7,0.6-10.6c0.2-0.7,0.3-1.4,0.5-2c0.2-0.9,0.1-1.6-0.2-2
			c-0.3-0.4-1-0.6-1.8-0.5c-1.3,0.1-2.2,0.7-2.6,3.2l-0.1,0.5l-0.3-0.4c-0.6-0.9-1.7-1.9-3.8-1.9c-0.2,0-0.4,0-0.6,0
			c-2.2,0.2-4.8,1.8-6.7,4.1c-2.2,2.7-3.2,6.2-2.9,9.7c0,0.2,0,0.4,0.1,0.5l0,0.1l-0.1,0.1c-1.3,1.4-2.6,2.1-4,2.1
			c-2,0-3.2-1.5-3.2-4.1c0-4.2,2.9-17.1,2.9-21.7c0-4.9-2.2-7.6-6-7.7h-0.1c-5.6,0-9.9,6.3-14.1,19.3c-0.4,1.2-0.8,2.6-1.2,3.8
			l-0.6,2l0.2-2c0.4-4.5,0.7-8.9,0.8-13.1c0.2-6.3-0.6-10.3-2.6-12.4c-1.1-1.1-2.5-1.6-4.3-1.7h0C95.6,75,92.4,86.5,90,94.7
			c-0.7,2.5-2.1,8-3.1,11.8l0.6-0.9c0.4-4.8,1.6-16.7,1.6-23.2c-0.1-6.9-2.4-10.1-7.5-10.1h-0.1c-2.7,0-4.6,1.4-5.7,2.5
			c-1.8,1.8-2.9,4.5-2.8,6.8c0,1.4,0.9,2.6,1.5,2.6c0.4,0,0.7-0.6,0.8-0.9c1.6-5.2,3.6-7.7,6.2-7.7c1.1,0,1.9,0.3,2.5,1
			c2,2.2,1.7,8.1,1,18.9c-0.2,3.5-0.5,7.4-0.7,11.9c0,0.8-0.1,1.5-0.1,2.2c-0.2,3.1-0.4,5.6,0.8,5.7c1.5,0.2,2.5-0.4,3-1.9
			c0.8-2.2,2.5-8.4,5.7-19.6c3.2-10.8,5.5-14.7,8.6-14.7c3.5,0,3.8,6,3.1,18.8c-0.1,2.7-0.3,5.8-0.5,9.1c0,0.5,0,0.9-0.1,1.4
			c-0.1,2.8-0.2,4.9,0.5,5.8c0.2,0.3,0.6,0.4,1,0.4c1.5,0,2-1.3,2.7-3.6c0.1-0.4,0.3-0.8,0.4-1.2c5.2-14.4,9.1-26.9,14.3-26.9
			c1.6,0,2.8,1.3,2.8,3.7c0,5.7-2.8,16.7-2.8,22.3c0,2,0.6,3.8,1.7,5c1.1,1.3,2.7,2,4.5,2h0c1.7,0,3.5-0.8,5.4-2.5l0.2-0.2l0.1,0.2
			c1.2,1.6,3.2,2.5,5.3,2.3c3.2-0.3,5.9-3.1,6.9-5.8l0.2-0.5l0.2,0.5C149.2,111.7,150.8,114.1,154.3,113.9z M184,76.2L184,76.2
			c0.4,0,0.7,0.2,1,0.5c1.3,1.7,1.3,8-0.9,15.2c-1.3,4.1-2.9,8-4.9,11.2l-0.3,0.5l-0.1-0.6c-0.2-1.7-0.3-3.5-0.4-5.1
			C177.8,87.2,181.1,76.3,184,76.2z M148.2,101.6c-1.1,4.5-3.3,10-7.2,10.3c-0.1,0-0.2,0-0.3,0c-1.6,0-2.5-1.1-2.7-3.1
			c-0.2-2.6,0.9-5.7,2.9-7.8c1.2-1.4,2.7-2.1,4-2.1h0c1.6,0,2.8,1.3,3.3,2.6L148.2,101.6L148.2,101.6z"/>
		<path d="M237.3,72.5L237.3,72.5L237.3,72.5z"/>
		<path d="M166.3,84.9c-1.4,0-2.6,1.1-2.6,2.5c0,1.4,1.1,2.6,2.6,2.6l0,0.2l0,0V90c1.4,0,2.6-1.1,2.6-2.5
			C168.9,86.1,167.7,84.9,166.3,84.9z"/>
		<path d="M256.8,84.9c-1.4,0-2.6,1.1-2.6,2.5c0,1.4,1.1,2.6,2.6,2.6l0,0.2l0,0V90c1.4,0,2.6-1.1,2.6-2.5
			C259.4,86.1,258.2,84.9,256.8,84.9z"/>
	</g>
</g>
</svg>
