<?xml version="1.0" encoding="utf-8"?>
<!-- Generator: Adobe Illustrator 16.0.0, SVG Export Plug-In . SVG Version: 6.00 Build 0)  -->
<!DOCTYPE svg PUBLIC "-//W3C//DTD SVG 1.1//EN" "http://www.w3.org/Graphics/SVG/1.1/DTD/svg11.dtd">
<svg version="1.1" id="Layer_1" xmlns="http://www.w3.org/2000/svg" xmlns:xlink="http://www.w3.org/1999/xlink" x="0px" y="0px"
	 width="400px" height="200px" viewBox="0 0 400 200" enable-background="new 0 0 400 200" xml:space="preserve">
<linearGradient id="SVGID_1_" gradientUnits="userSpaceOnUse" x1="556" y1="-144" x2="556" y2="-229.5936" gradientTransform="matrix(1 0 0 -1 -356 -85)">
	<stop  offset="0" style="stop-color:#14B1E7"/>
	<stop  offset="1" style="stop-color:#009EDB"/>
</linearGradient>
<path fill="url(#SVGID_1_)" d="M246.1,71.4c-3.4,1.5-7,2.5-10.9,3c3.9-2.3,6.9-6.1,8.3-10.5c-3.7,2.2-7.7,3.7-12,4.6
	c-3.5-3.7-8.4-6-13.8-6c-10.5,0-18.9,8.5-18.9,18.9c0,1.5,0.2,2.9,0.5,4.3c-15.7-0.8-29.7-8.3-39-19.8c-1.6,2.8-2.6,6-2.6,9.5
	c0,6.6,3.3,12.4,8.4,15.8c-3.1-0.1-6-0.9-8.6-2.4c0,0.1,0,0.2,0,0.2c0,9.2,6.5,16.8,15.2,18.6c-1.6,0.4-3.3,0.7-5,0.7
	c-1.2,0-2.4-0.1-3.6-0.3c2.4,7.5,9.4,13,17.7,13.1c-6.5,5.1-14.6,8.1-23.5,8.1c-1.5,0-3-0.1-4.5-0.3c8.4,5.4,18.3,8.5,29,8.5
	c34.8,0,53.9-28.9,53.9-53.9c0-0.8,0-1.6-0.1-2.4C240.4,78.5,243.6,75.2,246.1,71.4z"/>
</svg>
