<?xml version="1.0" encoding="utf-8"?>
<!-- Generator: Adobe Illustrator 16.0.0, SVG Export Plug-In . SVG Version: 6.00 Build 0)  -->
<!DOCTYPE svg PUBLIC "-//W3C//DTD SVG 1.1//EN" "http://www.w3.org/Graphics/SVG/1.1/DTD/svg11.dtd">
<svg version="1.1" id="Layer_1" xmlns="http://www.w3.org/2000/svg" xmlns:xlink="http://www.w3.org/1999/xlink" x="0px" y="0px"
	 width="400px" height="200px" viewBox="0 0 400 200" enable-background="new 0 0 400 200" xml:space="preserve">
<g>
	
		<linearGradient id="SVGID_1_" gradientUnits="userSpaceOnUse" x1="471.916" y1="-154.1533" x2="471.916" y2="-221.1066" gradientTransform="matrix(1 0 0 -1 -356 -85)">
		<stop  offset="0" style="stop-color:#14B1E7"/>
		<stop  offset="1" style="stop-color:#009EDB"/>
	</linearGradient>
	<path fill="url(#SVGID_1_)" d="M102.7,126.5H92.1l19.8-48.7h8.6l19.3,48.7H129l-3.6-9.5h-19.2L102.7,126.5z M115.7,89.4l-6.9,19.8
		h14L115.7,89.4z"/>
	
		<linearGradient id="SVGID_2_" gradientUnits="userSpaceOnUse" x1="512.9922" y1="-154.1533" x2="512.9922" y2="-221.1071" gradientTransform="matrix(1 0 0 -1 -356 -85)">
		<stop  offset="0" style="stop-color:#14B1E7"/>
		<stop  offset="1" style="stop-color:#009EDB"/>
	</linearGradient>
	<path fill="url(#SVGID_2_)" d="M176.5,126.5h-8.2v-5.2c-1.6,2.7-5,6.3-12.4,6.3c-11.1,0-18.3-8.7-18.3-19.2
		c0-11.7,8.4-19.2,18.2-19.2c6.9,0,10.8,3.7,12.1,5.8v-5.3v-12h8.6V126.5L176.5,126.5z M146.2,108.4c0,6.1,4.4,11.1,11.1,11.1
		c3.2,0,6-1.3,8-3.3c2-2,3.2-4.9,3.1-8c0-3.2-1.3-5.9-3.2-7.8c-2-2-4.7-3.2-7.8-3.2C150.2,97.3,146.2,102.7,146.2,108.4L146.2,108.4
		L146.2,108.4z"/>
</g>
<g>
	
		<linearGradient id="SVGID_3_" gradientUnits="userSpaceOnUse" x1="553.1719" y1="-153.2627" x2="553.1719" y2="-216.4509" gradientTransform="matrix(1 0 0 -1 -356 -85)">
		<stop  offset="0" style="stop-color:#414042"/>
		<stop  offset="1" style="stop-color:#282829"/>
	</linearGradient>
	<path fill="url(#SVGID_3_)" d="M210.6,103.2c1.6-2.4,2.6-5.5,2.6-9.1c0-5.4-2.2-10.3-6.2-13.2c-2.6-1.9-7-3.1-14.6-3.1h-11.6v48.7
		h9.8v-17.8l12.5,17.8h10.3l-10.9-18C205.8,107.7,208.5,106.3,210.6,103.2z M190.7,101V86.4h2.6c2.8,0,5.1,0.4,6.9,1.5
		c2.2,1.4,3.6,4.1,3.6,7c0,3-1.6,3.3-3.5,4.9C198.5,101.2,194,101,190.7,101z"/>
	
		<linearGradient id="SVGID_4_" gradientUnits="userSpaceOnUse" x1="588.2295" y1="-153.2617" x2="588.2295" y2="-216.4501" gradientTransform="matrix(1 0 0 -1 -356 -85)">
		<stop  offset="0" style="stop-color:#414042"/>
		<stop  offset="1" style="stop-color:#282829"/>
	</linearGradient>
	<path fill="url(#SVGID_4_)" d="M232.2,89.3c-12.6,0-19.4,9.8-19.4,19v0.1c0,9.4,6.8,19.2,19.4,19.2s19.4-9.8,19.4-19.2
		C251.6,99.1,244.8,89.3,232.2,89.3z M232.2,119.5c-5.9,0-10.7-4.7-10.7-11v-0.1c0-6.4,4.8-11.1,10.7-11.1c5.9,0,10.7,4.7,10.7,11.1
		S238.2,119.5,232.2,119.5z"/>
	
		<linearGradient id="SVGID_5_" gradientUnits="userSpaceOnUse" x1="615.1875" y1="-153.2627" x2="615.1875" y2="-216.4509" gradientTransform="matrix(1 0 0 -1 -356 -85)">
		<stop  offset="0" style="stop-color:#414042"/>
		<stop  offset="1" style="stop-color:#282829"/>
	</linearGradient>
	<rect x="254.9" y="77.8" fill="url(#SVGID_5_)" width="8.6" height="48.7"/>
	
		<linearGradient id="SVGID_6_" gradientUnits="userSpaceOnUse" x1="647.3154" y1="-153.2627" x2="647.3154" y2="-216.4509" gradientTransform="matrix(1 0 0 -1 -356 -85)">
		<stop  offset="0" style="stop-color:#414042"/>
		<stop  offset="1" style="stop-color:#282829"/>
	</linearGradient>
	<path fill="url(#SVGID_6_)" d="M301.8,100.7c-3.9,0-7.4,1.8-9.7,4.5l4.9,6.6c0.6-2.1,2.6-3.6,4.8-3.6c2.8,0,5,2.3,5,5
		c0,2.8-2.3,5-5,5h-11.6h-13.4V77.8h-8.6v48.7h8.6h25c7,0,12.6-6.2,12.6-13.2C314.4,106.4,308.8,100.7,301.8,100.7z"/>
</g>
</svg>
