<?xml version="1.0" encoding="utf-8"?>
<!-- Generator: Adobe Illustrator 16.0.0, SVG Export Plug-In . SVG Version: 6.00 Build 0)  -->
<!DOCTYPE svg PUBLIC "-//W3C//DTD SVG 1.1//EN" "http://www.w3.org/Graphics/SVG/1.1/DTD/svg11.dtd">
<svg version="1.1" id="Layer_1" xmlns="http://www.w3.org/2000/svg" xmlns:xlink="http://www.w3.org/1999/xlink" x="0px" y="0px"
	 width="400px" height="200px" viewBox="0 0 400 200" enable-background="new 0 0 400 200" xml:space="preserve">
<g>
	<g>
		<g>
			<g>
				<g>
					<path fill="#009BDE" d="M263.7,84.2h-13c-0.9,0-1.6,0.6-1.8,1.5l-5.2,33.3c-0.1,0.7,0.4,1.2,1.1,1.2h6.7c0.6,0,1.2-0.5,1.2-1.1
						l1.5-9.4c0.1-0.9,0.9-1.5,1.8-1.5h4.1c8.5,0,13.5-4.1,14.8-12.3c0.6-3.6,0-6.4-1.7-8.4C271.4,85.3,268.1,84.2,263.7,84.2z
						 M265.2,96.3c-0.7,4.7-4.3,4.7-7.7,4.7h-2l1.4-8.7c0.1-0.5,0.5-0.9,1.1-0.9h0.9c2.3,0,4.6,0,5.7,1.3
						C265.3,93.5,265.5,94.7,265.2,96.3z"/>
					<path fill="#002F87" d="M171.2,84.2h-13c-0.9,0-1.6,0.6-1.8,1.5l-5.2,33.3c-0.1,0.7,0.4,1.2,1.1,1.2h6.2c0.9,0,1.6-0.6,1.8-1.5
						l1.4-9c0.1-0.9,0.9-1.5,1.8-1.5h4.1c8.5,0,13.5-4.1,14.8-12.3c0.6-3.6,0-6.4-1.7-8.4C178.8,85.3,175.5,84.2,171.2,84.2z
						 M172.7,96.3c-0.7,4.7-4.3,4.7-7.7,4.7h-2l1.4-8.7c0.1-0.5,0.5-0.9,1.1-0.9h0.9c2.3,0,4.6,0,5.7,1.3
						C172.7,93.5,172.9,94.7,172.7,96.3z"/>
					<path fill="#002F87" d="M210,96.2h-6.2c-0.5,0-1,0.4-1.1,0.9l-0.3,1.7l-0.4-0.6c-1.3-2-4.3-2.6-7.3-2.6
						c-6.9,0-12.7,5.2-13.9,12.5c-0.6,3.6,0.2,7.1,2.3,9.5c1.9,2.2,4.6,3.2,7.8,3.2c5.5,0,8.6-3.6,8.6-3.6l-0.3,1.7
						c-0.1,0.7,0.4,1.3,1.1,1.3h5.6c0.9,0,1.6-0.6,1.8-1.5l3.4-21.3C211.2,96.8,210.6,96.2,210,96.2z M201.3,108.3
						c-0.6,3.6-3.4,5.9-7,5.9c-1.8,0-3.2-0.6-4.2-1.7c-0.9-1.1-1.3-2.6-1-4.4c0.6-3.5,3.4-6,7-6c1.8,0,3.2,0.6,4.1,1.7
						C201.2,105,201.6,106.6,201.3,108.3z"/>
					<path fill="#009BDE" d="M302.5,96.2h-6.2c-0.5,0-1,0.4-1.1,0.9l-0.3,1.7l-0.4-0.6c-1.3-2-4.3-2.6-7.3-2.6
						c-6.9,0-12.7,5.2-13.9,12.5c-0.6,3.6,0.2,7.1,2.3,9.5c1.9,2.2,4.6,3.2,7.8,3.2c5.5,0,8.6-3.6,8.6-3.6l-0.3,1.7
						c-0.1,0.7,0.4,1.3,1.1,1.3h5.6c0.9,0,1.6-0.6,1.8-1.5l3.4-21.3C303.7,96.8,303.2,96.2,302.5,96.2z M293.9,108.3
						c-0.6,3.6-3.4,5.9-7,5.9c-1.8,0-3.2-0.6-4.2-1.7c-0.9-1.1-1.3-2.6-1-4.4c0.6-3.5,3.4-6,7-6c1.8,0,3.2,0.6,4.1,1.7
						C293.8,105,294.1,106.6,293.9,108.3z"/>
					<path fill="#002F87" d="M243.1,96.2h-6.2c-0.6,0-1.2,0.3-1.5,0.8l-8.6,12.7l-3.6-12.2c-0.2-0.8-0.9-1.3-1.7-1.3h-6.1
						c-0.7,0-1.3,0.7-1,1.4l6.9,20.2l-6.5,9.1c-0.5,0.7,0,1.7,0.9,1.7h6.2c0.6,0,1.1-0.3,1.5-0.8l20.8-30
						C244.5,97.2,243.9,96.2,243.1,96.2z"/>
					<path fill="#009BDE" d="M309.9,85.1l-5.3,33.9c-0.1,0.7,0.4,1.2,1.1,1.2h5.4c0.9,0,1.6-0.6,1.8-1.5l5.2-33.3
						c0.1-0.7-0.4-1.2-1.1-1.2h-6C310.4,84.2,309.9,84.6,309.9,85.1z"/>
				</g>
			</g>
		</g>
	</g>
	<g>
		<path fill="#009BDE" d="M125.7,85.9c0.7-4.5,0-7.5-2.4-10.2c-2.7-3-7.4-4.3-13.6-4.3H91.9c-1.3,0-2.3,0.9-2.5,2.1l-7.4,47
			c-0.1,0.9,0.6,1.8,1.5,1.8h11l-0.8,4.8c-0.1,0.8,0.5,1.5,1.3,1.5h9.3c1.1,0,2-0.8,2.2-1.9l0.1-0.5l1.7-11.1l0.1-0.6
			c0.2-1.1,1.1-1.9,2.2-1.9h1.4c9,0,16-3.6,18-14.2c0.9-4.4,0.4-8.1-1.9-10.7C127.6,87.1,126.7,86.4,125.7,85.9L125.7,85.9"/>
		<path fill="#022169" d="M125.7,85.9c0.7-4.5,0-7.5-2.4-10.2c-2.7-3-7.4-4.3-13.6-4.3H91.9c-1.3,0-2.3,0.9-2.5,2.1l-7.4,47
			c-0.1,0.9,0.6,1.8,1.5,1.8h11l2.8-17.5l-0.1,0.5c0.2-1.2,1.3-2.1,2.5-2.1h5.2c10.3,0,18.3-4.2,20.6-16.2
			C125.6,86.6,125.7,86.3,125.7,85.9"/>
		<path fill="#002F87" d="M100.2,86c0.1-0.7,0.6-1.4,1.2-1.7c0.3-0.1,0.6-0.2,1-0.2h14c1.7,0,3.2,0.1,4.6,0.3
			c0.4,0.1,0.8,0.1,1.2,0.2c0.4,0.1,0.7,0.2,1.1,0.3c0.2,0.1,0.4,0.1,0.5,0.2c0.7,0.2,1.3,0.5,1.9,0.8c0.7-4.5,0-7.5-2.4-10.2
			c-2.7-3-7.4-4.3-13.6-4.3H91.9c-1.3,0-2.3,0.9-2.5,2.1l-7.4,47c-0.1,0.9,0.6,1.8,1.5,1.8h11l2.8-17.5L100.2,86z"/>
	</g>
</g>
</svg>
