<?xml version="1.0" encoding="utf-8"?>
<!-- Generator: Adobe Illustrator 16.0.0, SVG Export Plug-In . SVG Version: 6.00 Build 0)  -->
<!DOCTYPE svg PUBLIC "-//W3C//DTD SVG 1.1//EN" "http://www.w3.org/Graphics/SVG/1.1/DTD/svg11.dtd">
<svg version="1.1" id="Layer_1" xmlns="http://www.w3.org/2000/svg" xmlns:xlink="http://www.w3.org/1999/xlink" x="0px" y="0px"
	 width="400px" height="200px" viewBox="0 0 400 200" enable-background="new 0 0 400 200" xml:space="preserve">
<g>
	<g>
		<g>
			<g>
				<g>
					<polygon points="75,77.7 84.8,77.7 84.8,113.3 102.9,113.3 102.9,122.3 75,122.3 					"/>
					<g>
						<path d="M107.2,92.1h9.4v30.2h-9.4V92.1z M111.9,77c3,0,5.4,2.4,5.4,5.4c0,3-2.4,5.4-5.4,5.4c-3,0-5.4-2.4-5.4-5.4
							C106.4,79.5,108.9,77,111.9,77"/>
					</g>
					<polygon points="155.8,77.7 165.2,77.7 165.2,104.4 175.9,92 187.4,92 175.1,106 187.1,122.3 175.3,122.3 165.3,107.4 
						165.2,107.4 165.2,122.3 155.8,122.3 					"/>
					<path d="M121.8,92.1h9v4.1h0.1c1.3-2.4,4.3-4.9,8.9-4.9c9.5,0,11.3,6.3,11.3,14.4v16.6h-9.4v-14.7c0-3.5-0.1-8-4.9-8
						c-4.9,0-5.6,3.8-5.6,7.8v14.9h-9.4L121.8,92.1L121.8,92.1z"/>
					<path d="M207.1,103.7c0.1-3.1-2.4-5.8-5.8-5.8c-4.1,0-6.4,2.8-6.6,5.8H207.1z M215.1,117.1c-3,3.8-7.9,6-12.8,6
						c-9.4,0-16.9-6.3-16.9-16c0-9.7,7.5-16,16.9-16c8.8,0,14.3,6.3,14.3,16v2.9h-21.8c0.7,3.6,3.4,5.9,7.1,5.9
						c3.1,0,5.1-1.6,6.7-3.7L215.1,117.1z"/>
					<path d="M236.1,99.4c-4.7,0-7.5,3.1-7.5,7.7c0,4.6,2.8,7.7,7.5,7.7c4.7,0,7.5-3.1,7.5-7.7C243.6,102.5,240.8,99.4,236.1,99.4
						 M252.3,122.3h-8.6v-4h-0.1c-1.4,2.2-5.1,4.8-9.3,4.8c-9,0-15-6.5-15-15.7c0-8.5,5.3-16.2,13.9-16.2c3.9,0,7.5,1.1,9.6,4h0.1
						V77.7h9.4L252.3,122.3L252.3,122.3z"/>
				</g>
				<path fill="#0177B5" d="M320.3,68.3h-54c-2.6,0-4.7,2-4.7,4.6v54.2c0,2.5,2.1,4.6,4.7,4.6h54c2.6,0,4.7-2,4.7-4.6V72.9
					C325,70.4,322.9,68.3,320.3,68.3z"/>
				<path fill="#FFFFFF" d="M271,92.1h9.4v30.2H271V92.1z M275.7,77c3,0,5.4,2.4,5.4,5.4c0,3-2.4,5.4-5.4,5.4c-3,0-5.5-2.4-5.5-5.4
					C270.3,79.5,272.7,77,275.7,77"/>
				<path fill="#FFFFFF" d="M286.3,92.1h9v4.1h0.1c1.3-2.4,4.3-4.9,8.9-4.9c9.5,0,11.3,6.3,11.3,14.4v16.6h-9.4v-14.7
					c0-3.5-0.1-8-4.9-8c-4.9,0-5.6,3.8-5.6,7.8v15h-9.4V92.1L286.3,92.1z"/>
			</g>
		</g>
	</g>
</g>
</svg>
