<?xml version="1.0" encoding="utf-8"?>
<!-- Generator: Adobe Illustrator 16.0.0, SVG Export Plug-In . SVG Version: 6.00 Build 0)  -->
<!DOCTYPE svg PUBLIC "-//W3C//DTD SVG 1.1//EN" "http://www.w3.org/Graphics/SVG/1.1/DTD/svg11.dtd">
<svg version="1.1" id="Layer_1" xmlns="http://www.w3.org/2000/svg" xmlns:xlink="http://www.w3.org/1999/xlink" x="0px" y="0px"
	 width="400px" height="200px" viewBox="0 0 400 200" enable-background="new 0 0 400 200" xml:space="preserve">
<g>
	<g>
		
			<linearGradient id="SVGID_1_" gradientUnits="userSpaceOnUse" x1="579.4814" y1="-163.5" x2="579.4814" y2="-212.5106" gradientTransform="matrix(1 0 0 -1 -356 -85)">
			<stop  offset="0" style="stop-color:#D71920"/>
			<stop  offset="1" style="stop-color:#A72428"/>
		</linearGradient>
		<path fill="url(#SVGID_1_)" d="M205.7,98.5c2.6,0,3.6,1.6,3.6,3.5c0,3.2-2.5,5.2-6.5,5.2c-1.4,0-3.4-0.3-4.5-0.7
			C198.8,103.5,200.7,98.5,205.7,98.5 M262.6,98.5c2.4,0,3.6,1.6,3.6,3.5c0,3.2-2.5,5.2-6.4,5.2c-1.4,0-3.4-0.3-4.5-0.7
			C255.6,103.5,257.8,98.5,262.6,98.5 M316.5,98.8h6.1c0.8,0,1.3-0.3,1.5-1.1c0.3-1.1,0.8-3.1,0.9-3.6c0.2-0.7-0.2-1.2-1-1.2h-6
			c0.4-1.7,2.1-7.3,2.1-10.9c0-7.2-6.2-13.4-14.9-13.4c-9.9,0-16.3,6.6-16.3,15.9c0,2.7,1,5.9,2.3,7.9c-0.5,0-1.1-0.1-1.6-0.1
			c-7.5,0-12.2,4.1-12.2,10c0,5.6,4.4,7.7,8.5,9.1c3.7,1.3,7,1.9,7,4.7c0,1.9-1.9,3.1-5.5,3.1c-4.3,0-6.7-2-7.3-2.8
			c0.4-0.3,1-1.1,1-2.4c0-1.8-1.2-3.2-3.6-3.2c-2,0-3.6,1.6-4,3.7c-3.2,2.6-6.6,4.3-11.5,4.3c-4.8,0-7.3-2.5-7.3-7.8
			c1.1,0.3,4.1,0.8,6,0.8c8.1,0,13.7-3.7,13.7-11.1c0-4-3.5-8.2-10.4-8.2h0c-9.1,0-14.2,5.8-16.4,12.1c-0.6-0.2-1.2-0.3-1.9-0.4
			c0.5-1.4,0.9-3,0.9-4.8c0-3.1-1.9-6.8-7.1-6.8c-3.6,0-7,2.4-9.4,5.9c0.6-2.3,1-3.9,1-4c0.1-0.6-0.1-1.3-1-1.3h-5.3
			c-0.8,0-1.3,0.3-1.5,1.1c-0.1,0.6-2,7.8-3.8,14.7c-1.1,4.4-6.9,9.8-14.2,9.8c-4.8,0-7.3-2.7-7.3-8c1.3,0.5,4.1,0.9,6,0.9
			c8.5,0,13.7-3.7,13.7-11.1c0-4-3.5-8.2-10.4-8.2h0c-10.2,0-16.5,8-17.6,17c-0.4,3.8-3.6,8.9-7,8.9c-1.7,0-2.6-1-2.6-2.8
			c0-1.5,1.1-5.3,2.3-10c0.4-1.6,1-4,1.7-6.7h5.6c0.8,0,1.3-0.3,1.5-1.1c0.3-1.1,0.8-3.1,0.9-3.6c0.2-0.7-0.2-1.2-1-1.2h-5.5
			c0,0,2.5-10.1,2.6-10.3c0.2-1-0.6-1.6-1.5-1.4c0,0-4.2,0.8-5,1c-0.8,0.2-1.4,0.6-1.7,1.7c0,0.1-2.2,9-2.2,9H173
			c-0.8,0-1.3,0.3-1.5,1.1c-0.3,1.1-0.8,3.1-0.9,3.6c-0.2,0.7,0.2,1.2,1,1.2h4.3c0,0.1-1.6,5.9-2.8,11.1c-0.6,2.5-2.5,8.4-5.7,8.4
			c-1.9,0-2.7-1-2.7-3c0-3.2,3.2-11.4,3.2-15.1c0-4.9-2.6-7.8-8.1-7.8c-3.4,0-6.9,2.2-8.5,4.1c0,0,0.5-1.6,0.6-2.2
			c0.2-0.6-0.2-1.3-1-1.3h-5.3c-1.1,0-1.4,0.6-1.6,1.3c-0.1,0.3-2,7.8-3.8,14.9c-1.3,4.9-4.3,9-7.5,9c-1.7,0-2.4-1.1-2.4-2.8
			c0-1.5,1-5.3,2.2-10.1c1.4-5.7,2.7-10.5,2.9-11c0.2-0.7-0.1-1.3-1.1-1.3H129c-1,0-1.3,0.5-1.5,1.2c0,0-1.5,5.7-3.1,12
			c-1.1,4.6-2.4,9.3-2.4,11.4c0,3.9,1.8,6.9,6.6,6.9c3.7,0,6.7-1.9,8.9-4.3c-0.3,1.3-0.5,2.1-0.6,2.2c-0.2,0.8,0,1.4,0.9,1.4h5.4
			c0.9,0,1.3-0.4,1.5-1.2c0.2-0.8,4.3-16.8,4.3-16.8c1.1-4.3,3.7-7.1,7.5-7.1c1.8,0,3.3,1.2,3.1,3.5c-0.2,2.5-3.2,11.5-3.2,15.5
			c0,3,1.1,6.9,6.8,6.9c3.9,0,6.7-1.8,8.7-4.2c0.8,2.5,2.8,4.2,6.4,4.2c6.1,0,9.8-3.6,11.9-7.2c1.8,4.2,6,7.2,12.1,7.2
			c6.3,0,11.1-2.6,14.6-6.2c-0.6,2.4-1,4.1-1.1,4.2c-0.2,0.8,0.1,1.4,1,1.4h5.4c0.7,0,1.3-0.4,1.5-1.2c0.1-0.4,0.9-3.4,2-7.7
			c2.1-8.2,5.5-16.7,10.6-16.7c1.8,0,2.5,1,2.5,2.6c0,0.7-0.2,1.4-0.4,1.7c-2.5-0.5-4.4,0.7-4.4,3.4c0,1.7,1.8,3.3,4.2,3.3
			c1.9,0,3.4-0.5,4.6-1.3c1.1,0.2,2.4,0.5,3.6,0.8c-0.2,1.2-0.3,2.4-0.3,3.6c0,6.6,4.9,12.2,13.3,12.2c6.6,0,10.8-2.2,14.8-5.5
			c1.9,3.1,6.6,5.6,12.8,5.6c8.5,0,13.4-4.4,13.4-10.3c0-5.3-4.4-7.3-8.8-8.9c-3.6-1.3-6.7-2-6.7-4.6c0-2.1,1.7-3.1,4.5-3.1
			c1.8,0,3.2,0.4,4,0.6c0.7,1.8,2.3,3.9,4.9,3.9c2.2,0,3.2-1.7,3.2-3.3c0-4.6-7.6-5-7.6-14.8c0-6.1,3.4-11.1,10.6-11.1
			c5,0,8.2,3.1,8.2,8.2c0,4.2-2.5,11.6-2.5,11.6h-4.3c-0.8,0-1.3,0.3-1.5,1.1c-0.3,1.1-0.8,3.1-0.9,3.6c-0.2,0.7,0.2,1.2,1,1.2h4.2
			c0,0-4.3,16-4.3,18.9c0,3.9,2.2,6.9,7,6.9c6.8,0,11.1-4.4,13-10.9c0.1-0.5-0.1-0.9-0.6-0.9H321c-0.5,0-0.8,0.3-1,0.8
			c-0.6,2.3-2,4.7-4.9,4.7c-1.7,0-2.6-1-2.6-2.8c0-1.5,1-5.1,2.3-10C315.4,103.1,316.5,98.8,316.5,98.8"/>
		
			<linearGradient id="SVGID_2_" gradientUnits="userSpaceOnUse" x1="489.3691" y1="-163.5" x2="489.3691" y2="-212.5102" gradientTransform="matrix(1 0 0 -1 -356 -85)">
			<stop  offset="0" style="stop-color:#D71920"/>
			<stop  offset="1" style="stop-color:#A72428"/>
		</linearGradient>
		<path fill="url(#SVGID_2_)" d="M138.3,84.7c-0.2,2.8-2.5,5.1-5.3,5.1c-2.7,0-4.8-2.3-4.6-5.1c0.2-2.8,2.6-5.1,5.3-5.1
			C136.4,79.6,138.5,81.9,138.3,84.7L138.3,84.7z"/>
		
			<linearGradient id="SVGID_3_" gradientUnits="userSpaceOnUse" x1="455.4941" y1="-163.5" x2="455.4941" y2="-212.5106" gradientTransform="matrix(1 0 0 -1 -356 -85)">
			<stop  offset="0" style="stop-color:#D71920"/>
			<stop  offset="1" style="stop-color:#A72428"/>
		</linearGradient>
		<path fill="url(#SVGID_3_)" d="M100.3,68.4C83.8,68.4,75,79.5,75,91.6c0,5.6,3,12.6,7.8,14.9c0.7,0.3,1.1,0.2,1.3-0.5
			c0.1-0.5,0.8-3.1,1.1-4.4c0.1-0.4,0-0.7-0.3-1.1C83.3,98.6,82,95,82,91.7c0-8.5,6.4-16.6,17.3-16.6c9.4,0,16,6.4,16,15.6
			c0,10.4-5.2,17.6-12.1,17.6c-3.8,0-6.6-3.1-5.7-6.9c1.1-4.6,3.2-9.5,3.2-12.8c0-3-1.6-5.4-4.9-5.4c-3.8,0-6.9,4-6.9,9.3
			c0,3.4,1.1,5.7,1.1,5.7s-3.8,16.1-4.5,19.1c-1.2,5.1,0.2,13.3,0.3,14c0.1,0.4,0.5,0.5,0.7,0.2c0.4-0.5,5-7.4,6.3-12.3
			c0.5-1.8,2.4-9.1,2.4-9.1c1.3,2.4,4.9,4.4,8.8,4.4c11.6,0,19.9-10.6,19.9-23.9C124,77.9,113.7,68.4,100.3,68.4L100.3,68.4z"/>
	</g>
</g>
</svg>
