<?xml version="1.0" encoding="utf-8"?>
<!-- Generator: Adobe Illustrator 16.0.0, SVG Export Plug-In . SVG Version: 6.00 Build 0)  -->
<!DOCTYPE svg PUBLIC "-//W3C//DTD SVG 1.1//EN" "http://www.w3.org/Graphics/SVG/1.1/DTD/svg11.dtd">
<svg version="1.1" id="Layer_1" xmlns="http://www.w3.org/2000/svg" xmlns:xlink="http://www.w3.org/1999/xlink" x="0px" y="0px"
	 width="400px" height="200px" viewBox="0 0 400 200" enable-background="new 0 0 400 200" xml:space="preserve">
<g>
	<g>
		<path fill="#FDBF51" d="M103.8,95.9c-7.7-2.3-14.4-0.4-19.5,2.3c0,0.6-0.1,1.1-0.1,1.7c0,12.2,9.9,22,22,22c12.2,0,22-9.9,22-22
			c0-0.6,0-1.2-0.1-1.8C122,99.7,114,98.9,103.8,95.9z"/>
	</g>
	<g>
		<g>
			<polygon fill="#308DC3" points="191.9,82.1 182.6,82.1 182.6,117.9 191.9,117.9 204.3,117.9 204.3,113.2 191.9,113.2 			"/>
			<polygon fill="#308DC3" points="258.7,82.1 258.7,117.9 268,117.9 268,100.6 268,82.1 			"/>
			<rect x="208.2" y="82.1" fill="#308DC3" width="9.3" height="35.7"/>
			<polygon fill="#308DC3" points="285.1,82.1 279.9,82.1 268,100.6 279.9,117.9 290.2,117.9 276.2,97.2 			"/>
			<polygon fill="#308DC3" points="322,82.1 316.9,82.1 309.4,95 301.6,82.1 290.8,82.1 302.3,101.1 302.3,117.9 311.6,117.9 
				311.6,100.3 			"/>
			<path fill="#308DC3" d="M164.7,85.6c7.4,0,9.7,6.9,9.7,6.9l4.1-3.2c-4.1-8.1-14.7-7.2-14.7-7.2c-17.3,0-17.4,16.5-17.4,17.7
				c0,1.3,0.1,17.7,17.4,17.7c0,0,10.5,0.9,14.7-7.2l-4.1-3.2c0,0-2.3,6.9-9.7,6.9c0,0-9.8,0.4-9.8-14.3
				C154.9,85.2,164.7,85.6,164.7,85.6z"/>
			<path fill="#308DC3" d="M240.5,85.6c7.4,0,9.7,6.9,9.7,6.9l4.1-3.2c-4.1-8.1-14.7-7.2-14.7-7.2c-17.3,0-17.4,16.5-17.4,17.7
				c0,1.3,0.1,17.7,17.4,17.7c0,0,10.5,0.9,14.7-7.2l-4.1-3.2c0,0-2.3,6.9-9.7,6.9c0,0-9.8,0.4-9.8-14.3
				C230.7,85.2,240.5,85.6,240.5,85.6z"/>
		</g>
		<g>
			<path fill="#F26643" d="M106.2,128.2C90.7,128.2,78,115.6,78,100c0-15.6,12.7-28.2,28.2-28.2c15.6,0,28.2,12.7,28.2,28.2
				C134.5,115.6,121.8,128.2,106.2,128.2z M106.2,74.6c-14,0-25.4,11.4-25.4,25.4c0,14,11.4,25.4,25.4,25.4
				c14,0,25.4-11.4,25.4-25.4C131.7,86,120.3,74.6,106.2,74.6z"/>
			<path fill="#FDBF51" d="M106.2,123c-12.7,0-23-10.3-23-23c0-12.7,10.3-23,23-23c12.7,0,23,10.3,23,23
				C129.2,112.7,118.9,123,106.2,123z M106.2,78c-12.2,0-22,9.9-22,22c0,12.2,9.9,22,22,22c12.2,0,22-9.9,22-22
				C128.3,87.8,118.4,78,106.2,78z"/>
			<path fill="#F26643" d="M109.4,115.7l-5.9-10.2l-6.2,4.6V85L118,97.7l-6.4,3l5.2,10.6L109.4,115.7z"/>
		</g>
	</g>
	<polygon fill="#FFFFFF" points="104.3,101.4 110.4,111.8 113.2,110.2 107.9,99.3 112.1,97.4 100.1,90 100.1,104.5 	"/>
</g>
</svg>
