<?xml version="1.0" encoding="utf-8"?>
<!-- Generator: Adobe Illustrator 16.0.0, SVG Export Plug-In . SVG Version: 6.00 Build 0)  -->
<!DOCTYPE svg PUBLIC "-//W3C//DTD SVG 1.1//EN" "http://www.w3.org/Graphics/SVG/1.1/DTD/svg11.dtd">
<svg version="1.1" id="Layer_1" xmlns="http://www.w3.org/2000/svg" xmlns:xlink="http://www.w3.org/1999/xlink" x="0px" y="0px"
	 width="400px" height="200px" viewBox="0 0 400 200" enable-background="new 0 0 400 200" xml:space="preserve">
<linearGradient id="Stripe_Logo_1_" gradientUnits="userSpaceOnUse" x1="556.332" y1="-136.8335" x2="556.332" y2="-237.8735" gradientTransform="matrix(1 0 0 -1 -356 -85)">
	<stop  offset="0" style="stop-color:#00AFE1"/>
	<stop  offset="1" style="stop-color:#0087C3"/>
</linearGradient>
<path id="Stripe_Logo" fill="url(#Stripe_Logo_1_)" d="M283.3,97.8c0.5-7.2,2.4-10.6,6.1-10.6c3.6,0,5.5,3.4,5.8,10.6H283.3z
	 M310.3,102.1c0-8.1-1.8-14.4-5.2-18.9c-3.5-4.5-8.8-6.9-15.5-6.9c-13.7,0-22.2,10.1-22.2,26.4c0,9.1,2.3,15.9,6.8,20.3
	c4,3.9,9.8,5.8,17.3,5.8c6.9,0,13.2-1.6,17.3-4.3l-1.8-11c-4,2.1-8.6,3.3-13.8,3.3c-3.1,0-5.3-0.6-6.8-2c-1.7-1.4-2.7-3.8-3-7.1
	h26.7C310.2,106.9,310.3,103.2,310.3,102.1z M245.9,113c-1.3,2.5-3.3,3.8-5.7,3.8c-1.6,0-3.1-0.3-4.4-1v-24c2.7-2.9,5.2-3.2,6.1-3.2
	c4.1,0,6.1,4.4,6.1,13.1C248.1,106.5,247.4,110.4,245.9,113z M259.3,81.8c-2.9-3.7-6.8-5.5-11.9-5.5c-4.7,0-8.8,1.9-12.6,6l-0.8-5.1
	h-14.2v69.2l16.1-2.7v-16.2c2.5,0.8,5,1.2,7.3,1.2c4,0,9.9-1,14.4-6c4.4-4.7,6.6-12.1,6.6-21.8C264.2,92.4,262.5,86,259.3,81.8z
	 M197.3,77.2h16.2v50.5h-16.2V77.2z M205.4,72.2c4.7,0,8.4-3.8,8.4-8.5c0-4.7-3.8-8.5-8.4-8.5c-4.7,0-8.5,3.8-8.5,8.5
	C196.9,68.4,200.7,72.2,205.4,72.2z M190.3,76.5c-4.5,0-8.2,2.4-9.6,6.7l-1-6h-14.1v50.5h16.1V95c2-2.5,4.9-3.4,8.8-3.4
	c0.8,0,1.8,0,2.9,0.2V76.9C192.3,76.7,191.3,76.5,190.3,76.5z M159.5,89.2l1.9-11.9h-10.3V62.7L137.3,65l-2,12.2l-4.9,0.8l-1.8,11.2
	h6.7v23.4c0,6.1,1.6,10.3,4.7,12.9c2.7,2.1,6.5,3.2,11.9,3.2c4.2,0,6.7-0.7,8.4-1.2v-12.7c-1,0.3-3.2,0.7-4.7,0.7
	c-3.2,0-4.5-1.6-4.5-5.3V89.2H159.5z M113.3,96.3c-4.7-1.8-7.3-3.1-7.3-5.3c0-1.8,1.5-2.9,4.2-2.9c4.9,0,9.9,1.9,13.3,3.6l1.9-12
	c-2.7-1.3-8.3-3.4-16-3.4c-5.5,0-10,1.4-13.2,4.1c-3.4,2.8-5.1,6.8-5.1,11.7c0,8.8,5.4,12.6,14.2,15.8c5.6,2,7.5,3.4,7.5,5.6
	c0,2.1-1.8,3.4-5.1,3.4c-4.1,0-10.8-2-15.3-4.6l-1.9,12.1c3.8,2.1,10.8,4.4,18.1,4.4c5.8,0,10.6-1.4,13.8-4
	c3.6-2.9,5.5-7.1,5.5-12.5C127.7,103.2,122.2,99.5,113.3,96.3L113.3,96.3z"/>
</svg>
